(['C:\\Users\\Cody\\Desktop\\FuzeBuildSelector\\testwithSSH\\testingwithSSH.py'],
 ['C:\\Users\\Cody\\Desktop\\FuzeBuildSelector\\testwithSSH',
  'C:\\Users\\Cody\\Desktop\\FuzeBuildSelector\\testwithSSH'],
 ['codecs'],
 ['C:\\Users\\Cody\\AppData\\Roaming\\Python\\Python38\\site-packages\\_pyinstaller_hooks_contrib\\hooks\\stdhooks',
  'C:\\Users\\Cody\\AppData\\Roaming\\Python\\Python38\\site-packages\\_pyinstaller_hooks_contrib\\hooks\\stdhooks\\__pycache__',
  'C:\\Users\\Cody\\AppData\\Roaming\\Python\\Python38\\site-packages\\_pyinstaller_hooks_contrib\\hooks\\rthooks',
  'C:\\Users\\Cody\\AppData\\Roaming\\Python\\Python38\\site-packages\\_pyinstaller_hooks_contrib\\hooks\\rthooks\\__pycache__',
  'C:\\Users\\Cody\\AppData\\Roaming\\Python\\Python38\\site-packages\\_pyinstaller_hooks_contrib\\hooks',
  'C:\\Users\\Cody\\AppData\\Roaming\\Python\\Python38\\site-packages\\pygame\\__pyinstaller'],
 [],
 [],
 False,
 False,
 False,
 '3.8.8 (tags/v3.8.8:024d805, Feb 19 2021, 13:18:16) [MSC v.1928 64 bit '
 '(AMD64)]',
 [('pyi_rth_multiprocessing',
   'C:\\Users\\Cody\\AppData\\Roaming\\Python\\Python38\\site-packages\\PyInstaller\\hooks\\rthooks\\pyi_rth_multiprocessing.py',
   'PYSOURCE'),
  ('testingwithSSH',
   'C:\\Users\\Cody\\Desktop\\FuzeBuildSelector\\testwithSSH\\testingwithSSH.py',
   'PYSOURCE')],
 [('multiprocessing.popen_spawn_posix',
   'c:\\program files\\python38\\lib\\multiprocessing\\popen_spawn_posix.py',
   'PYMODULE'),
  ('multiprocessing.resource_tracker',
   'c:\\program files\\python38\\lib\\multiprocessing\\resource_tracker.py',
   'PYMODULE'),
  ('threading', 'c:\\program files\\python38\\lib\\threading.py', 'PYMODULE'),
  ('_threading_local',
   'c:\\program files\\python38\\lib\\_threading_local.py',
   'PYMODULE'),
  ('contextlib', 'c:\\program files\\python38\\lib\\contextlib.py', 'PYMODULE'),
  ('_strptime', 'c:\\program files\\python38\\lib\\_strptime.py', 'PYMODULE'),
  ('datetime', 'c:\\program files\\python38\\lib\\datetime.py', 'PYMODULE'),
  ('calendar', 'c:\\program files\\python38\\lib\\calendar.py', 'PYMODULE'),
  ('argparse', 'c:\\program files\\python38\\lib\\argparse.py', 'PYMODULE'),
  ('textwrap', 'c:\\program files\\python38\\lib\\textwrap.py', 'PYMODULE'),
  ('copy', 'c:\\program files\\python38\\lib\\copy.py', 'PYMODULE'),
  ('gettext', 'c:\\program files\\python38\\lib\\gettext.py', 'PYMODULE'),
  ('struct', 'c:\\program files\\python38\\lib\\struct.py', 'PYMODULE'),
  ('shutil', 'c:\\program files\\python38\\lib\\shutil.py', 'PYMODULE'),
  ('zipfile', 'c:\\program files\\python38\\lib\\zipfile.py', 'PYMODULE'),
  ('py_compile', 'c:\\program files\\python38\\lib\\py_compile.py', 'PYMODULE'),
  ('ntpath', 'c:\\program files\\python38\\lib\\ntpath.py', 'PYMODULE'),
  ('string', 'c:\\program files\\python38\\lib\\string.py', 'PYMODULE'),
  ('genericpath',
   'c:\\program files\\python38\\lib\\genericpath.py',
   'PYMODULE'),
  ('importlib.machinery',
   'c:\\program files\\python38\\lib\\importlib\\machinery.py',
   'PYMODULE'),
  ('importlib',
   'c:\\program files\\python38\\lib\\importlib\\__init__.py',
   'PYMODULE'),
  ('importlib.abc',
   'c:\\program files\\python38\\lib\\importlib\\abc.py',
   'PYMODULE'),
  ('importlib._bootstrap',
   'c:\\program files\\python38\\lib\\importlib\\_bootstrap.py',
   'PYMODULE'),
  ('importlib._bootstrap_external',
   'c:\\program files\\python38\\lib\\importlib\\_bootstrap_external.py',
   'PYMODULE'),
  ('importlib.metadata',
   'c:\\program files\\python38\\lib\\importlib\\metadata.py',
   'PYMODULE'),
  ('configparser',
   'c:\\program files\\python38\\lib\\configparser.py',
   'PYMODULE'),
  ('pathlib', 'c:\\program files\\python38\\lib\\pathlib.py', 'PYMODULE'),
  ('urllib.parse',
   'c:\\program files\\python38\\lib\\urllib\\parse.py',
   'PYMODULE'),
  ('urllib',
   'c:\\program files\\python38\\lib\\urllib\\__init__.py',
   'PYMODULE'),
  ('email', 'c:\\program files\\python38\\lib\\email\\__init__.py', 'PYMODULE'),
  ('email.parser',
   'c:\\program files\\python38\\lib\\email\\parser.py',
   'PYMODULE'),
  ('email._policybase',
   'c:\\program files\\python38\\lib\\email\\_policybase.py',
   'PYMODULE'),
  ('email.utils',
   'c:\\program files\\python38\\lib\\email\\utils.py',
   'PYMODULE'),
  ('email._parseaddr',
   'c:\\program files\\python38\\lib\\email\\_parseaddr.py',
   'PYMODULE'),
  ('socket', 'c:\\program files\\python38\\lib\\socket.py', 'PYMODULE'),
  ('selectors', 'c:\\program files\\python38\\lib\\selectors.py', 'PYMODULE'),
  ('random', 'c:\\program files\\python38\\lib\\random.py', 'PYMODULE'),
  ('hashlib', 'c:\\program files\\python38\\lib\\hashlib.py', 'PYMODULE'),
  ('logging',
   'c:\\program files\\python38\\lib\\logging\\__init__.py',
   'PYMODULE'),
  ('pickle', 'c:\\program files\\python38\\lib\\pickle.py', 'PYMODULE'),
  ('pprint', 'c:\\program files\\python38\\lib\\pprint.py', 'PYMODULE'),
  ('doctest', 'c:\\program files\\python38\\lib\\doctest.py', 'PYMODULE'),
  ('unittest',
   'c:\\program files\\python38\\lib\\unittest\\__init__.py',
   'PYMODULE'),
  ('unittest.signals',
   'c:\\program files\\python38\\lib\\unittest\\signals.py',
   'PYMODULE'),
  ('unittest.main',
   'c:\\program files\\python38\\lib\\unittest\\main.py',
   'PYMODULE'),
  ('unittest.runner',
   'c:\\program files\\python38\\lib\\unittest\\runner.py',
   'PYMODULE'),
  ('unittest.loader',
   'c:\\program files\\python38\\lib\\unittest\\loader.py',
   'PYMODULE'),
  ('unittest.suite',
   'c:\\program files\\python38\\lib\\unittest\\suite.py',
   'PYMODULE'),
  ('unittest.case',
   'c:\\program files\\python38\\lib\\unittest\\case.py',
   'PYMODULE'),
  ('unittest.async_case',
   'c:\\program files\\python38\\lib\\unittest\\async_case.py',
   'PYMODULE'),
  ('asyncio',
   'c:\\program files\\python38\\lib\\asyncio\\__init__.py',
   'PYMODULE'),
  ('asyncio.unix_events',
   'c:\\program files\\python38\\lib\\asyncio\\unix_events.py',
   'PYMODULE'),
  ('asyncio.log',
   'c:\\program files\\python38\\lib\\asyncio\\log.py',
   'PYMODULE'),
  ('asyncio.windows_events',
   'c:\\program files\\python38\\lib\\asyncio\\windows_events.py',
   'PYMODULE'),
  ('asyncio.windows_utils',
   'c:\\program files\\python38\\lib\\asyncio\\windows_utils.py',
   'PYMODULE'),
  ('tempfile', 'c:\\program files\\python38\\lib\\tempfile.py', 'PYMODULE'),
  ('asyncio.selector_events',
   'c:\\program files\\python38\\lib\\asyncio\\selector_events.py',
   'PYMODULE'),
  ('ssl', 'c:\\program files\\python38\\lib\\ssl.py', 'PYMODULE'),
  ('base64', 'c:\\program files\\python38\\lib\\base64.py', 'PYMODULE'),
  ('getopt', 'c:\\program files\\python38\\lib\\getopt.py', 'PYMODULE'),
  ('asyncio.proactor_events',
   'c:\\program files\\python38\\lib\\asyncio\\proactor_events.py',
   'PYMODULE'),
  ('asyncio.base_subprocess',
   'c:\\program files\\python38\\lib\\asyncio\\base_subprocess.py',
   'PYMODULE'),
  ('asyncio.subprocess',
   'c:\\program files\\python38\\lib\\asyncio\\subprocess.py',
   'PYMODULE'),
  ('asyncio.streams',
   'c:\\program files\\python38\\lib\\asyncio\\streams.py',
   'PYMODULE'),
  ('asyncio.queues',
   'c:\\program files\\python38\\lib\\asyncio\\queues.py',
   'PYMODULE'),
  ('asyncio.runners',
   'c:\\program files\\python38\\lib\\asyncio\\runners.py',
   'PYMODULE'),
  ('asyncio.events',
   'c:\\program files\\python38\\lib\\asyncio\\events.py',
   'PYMODULE'),
  ('contextvars',
   'c:\\program files\\python38\\lib\\contextvars.py',
   'PYMODULE'),
  ('asyncio.trsock',
   'c:\\program files\\python38\\lib\\asyncio\\trsock.py',
   'PYMODULE'),
  ('asyncio.staggered',
   'c:\\program files\\python38\\lib\\asyncio\\staggered.py',
   'PYMODULE'),
  ('typing', 'c:\\program files\\python38\\lib\\typing.py', 'PYMODULE'),
  ('asyncio.tasks',
   'c:\\program files\\python38\\lib\\asyncio\\tasks.py',
   'PYMODULE'),
  ('concurrent.futures',
   'c:\\program files\\python38\\lib\\concurrent\\futures\\__init__.py',
   'PYMODULE'),
  ('concurrent.futures.thread',
   'c:\\program files\\python38\\lib\\concurrent\\futures\\thread.py',
   'PYMODULE'),
  ('queue', 'c:\\program files\\python38\\lib\\queue.py', 'PYMODULE'),
  ('concurrent.futures.process',
   'c:\\program files\\python38\\lib\\concurrent\\futures\\process.py',
   'PYMODULE'),
  ('multiprocessing.queues',
   'c:\\program files\\python38\\lib\\multiprocessing\\queues.py',
   'PYMODULE'),
  ('multiprocessing.synchronize',
   'c:\\program files\\python38\\lib\\multiprocessing\\synchronize.py',
   'PYMODULE'),
  ('multiprocessing.heap',
   'c:\\program files\\python38\\lib\\multiprocessing\\heap.py',
   'PYMODULE'),
  ('multiprocessing.process',
   'c:\\program files\\python38\\lib\\multiprocessing\\process.py',
   'PYMODULE'),
  ('multiprocessing.connection',
   'c:\\program files\\python38\\lib\\multiprocessing\\connection.py',
   'PYMODULE'),
  ('multiprocessing.resource_sharer',
   'c:\\program files\\python38\\lib\\multiprocessing\\resource_sharer.py',
   'PYMODULE'),
  ('xmlrpc.client',
   'c:\\program files\\python38\\lib\\xmlrpc\\client.py',
   'PYMODULE'),
  ('xmlrpc',
   'c:\\program files\\python38\\lib\\xmlrpc\\__init__.py',
   'PYMODULE'),
  ('gzip', 'c:\\program files\\python38\\lib\\gzip.py', 'PYMODULE'),
  ('_compression',
   'c:\\program files\\python38\\lib\\_compression.py',
   'PYMODULE'),
  ('xml.parsers.expat',
   'c:\\program files\\python38\\lib\\xml\\parsers\\expat.py',
   'PYMODULE'),
  ('xml.parsers',
   'c:\\program files\\python38\\lib\\xml\\parsers\\__init__.py',
   'PYMODULE'),
  ('xml', 'c:\\program files\\python38\\lib\\xml\\__init__.py', 'PYMODULE'),
  ('xml.sax.expatreader',
   'c:\\program files\\python38\\lib\\xml\\sax\\expatreader.py',
   'PYMODULE'),
  ('xml.sax.saxutils',
   'c:\\program files\\python38\\lib\\xml\\sax\\saxutils.py',
   'PYMODULE'),
  ('urllib.request',
   'c:\\program files\\python38\\lib\\urllib\\request.py',
   'PYMODULE'),
  ('getpass', 'c:\\program files\\python38\\lib\\getpass.py', 'PYMODULE'),
  ('nturl2path', 'c:\\program files\\python38\\lib\\nturl2path.py', 'PYMODULE'),
  ('ftplib', 'c:\\program files\\python38\\lib\\ftplib.py', 'PYMODULE'),
  ('netrc', 'c:\\program files\\python38\\lib\\netrc.py', 'PYMODULE'),
  ('shlex', 'c:\\program files\\python38\\lib\\shlex.py', 'PYMODULE'),
  ('mimetypes', 'c:\\program files\\python38\\lib\\mimetypes.py', 'PYMODULE'),
  ('http.cookiejar',
   'c:\\program files\\python38\\lib\\http\\cookiejar.py',
   'PYMODULE'),
  ('http', 'c:\\program files\\python38\\lib\\http\\__init__.py', 'PYMODULE'),
  ('urllib.response',
   'c:\\program files\\python38\\lib\\urllib\\response.py',
   'PYMODULE'),
  ('urllib.error',
   'c:\\program files\\python38\\lib\\urllib\\error.py',
   'PYMODULE'),
  ('xml.sax',
   'c:\\program files\\python38\\lib\\xml\\sax\\__init__.py',
   'PYMODULE'),
  ('xml.sax.handler',
   'c:\\program files\\python38\\lib\\xml\\sax\\handler.py',
   'PYMODULE'),
  ('xml.sax._exceptions',
   'c:\\program files\\python38\\lib\\xml\\sax\\_exceptions.py',
   'PYMODULE'),
  ('xml.sax.xmlreader',
   'c:\\program files\\python38\\lib\\xml\\sax\\xmlreader.py',
   'PYMODULE'),
  ('http.client',
   'c:\\program files\\python38\\lib\\http\\client.py',
   'PYMODULE'),
  ('email.message',
   'c:\\program files\\python38\\lib\\email\\message.py',
   'PYMODULE'),
  ('email.policy',
   'c:\\program files\\python38\\lib\\email\\policy.py',
   'PYMODULE'),
  ('email.contentmanager',
   'c:\\program files\\python38\\lib\\email\\contentmanager.py',
   'PYMODULE'),
  ('email.quoprimime',
   'c:\\program files\\python38\\lib\\email\\quoprimime.py',
   'PYMODULE'),
  ('email.headerregistry',
   'c:\\program files\\python38\\lib\\email\\headerregistry.py',
   'PYMODULE'),
  ('email.iterators',
   'c:\\program files\\python38\\lib\\email\\iterators.py',
   'PYMODULE'),
  ('email.generator',
   'c:\\program files\\python38\\lib\\email\\generator.py',
   'PYMODULE'),
  ('email._encoded_words',
   'c:\\program files\\python38\\lib\\email\\_encoded_words.py',
   'PYMODULE'),
  ('quopri', 'c:\\program files\\python38\\lib\\quopri.py', 'PYMODULE'),
  ('uu', 'c:\\program files\\python38\\lib\\uu.py', 'PYMODULE'),
  ('optparse', 'c:\\program files\\python38\\lib\\optparse.py', 'PYMODULE'),
  ('decimal', 'c:\\program files\\python38\\lib\\decimal.py', 'PYMODULE'),
  ('_pydecimal', 'c:\\program files\\python38\\lib\\_pydecimal.py', 'PYMODULE'),
  ('numbers', 'c:\\program files\\python38\\lib\\numbers.py', 'PYMODULE'),
  ('hmac', 'c:\\program files\\python38\\lib\\hmac.py', 'PYMODULE'),
  ('concurrent.futures._base',
   'c:\\program files\\python38\\lib\\concurrent\\futures\\_base.py',
   'PYMODULE'),
  ('concurrent',
   'c:\\program files\\python38\\lib\\concurrent\\__init__.py',
   'PYMODULE'),
  ('asyncio.base_tasks',
   'c:\\program files\\python38\\lib\\asyncio\\base_tasks.py',
   'PYMODULE'),
  ('asyncio.locks',
   'c:\\program files\\python38\\lib\\asyncio\\locks.py',
   'PYMODULE'),
  ('asyncio.sslproto',
   'c:\\program files\\python38\\lib\\asyncio\\sslproto.py',
   'PYMODULE'),
  ('asyncio.transports',
   'c:\\program files\\python38\\lib\\asyncio\\transports.py',
   'PYMODULE'),
  ('asyncio.base_events',
   'c:\\program files\\python38\\lib\\asyncio\\base_events.py',
   'PYMODULE'),
  ('asyncio.protocols',
   'c:\\program files\\python38\\lib\\asyncio\\protocols.py',
   'PYMODULE'),
  ('asyncio.futures',
   'c:\\program files\\python38\\lib\\asyncio\\futures.py',
   'PYMODULE'),
  ('asyncio.coroutines',
   'c:\\program files\\python38\\lib\\asyncio\\coroutines.py',
   'PYMODULE'),
  ('asyncio.base_futures',
   'c:\\program files\\python38\\lib\\asyncio\\base_futures.py',
   'PYMODULE'),
  ('asyncio.exceptions',
   'c:\\program files\\python38\\lib\\asyncio\\exceptions.py',
   'PYMODULE'),
  ('asyncio.format_helpers',
   'c:\\program files\\python38\\lib\\asyncio\\format_helpers.py',
   'PYMODULE'),
  ('asyncio.constants',
   'c:\\program files\\python38\\lib\\asyncio\\constants.py',
   'PYMODULE'),
  ('unittest.result',
   'c:\\program files\\python38\\lib\\unittest\\result.py',
   'PYMODULE'),
  ('unittest.util',
   'c:\\program files\\python38\\lib\\unittest\\util.py',
   'PYMODULE'),
  ('pdb', 'c:\\program files\\python38\\lib\\pdb.py', 'PYMODULE'),
  ('pydoc', 'c:\\program files\\python38\\lib\\pydoc.py', 'PYMODULE'),
  ('webbrowser', 'c:\\program files\\python38\\lib\\webbrowser.py', 'PYMODULE'),
  ('http.server',
   'c:\\program files\\python38\\lib\\http\\server.py',
   'PYMODULE'),
  ('socketserver',
   'c:\\program files\\python38\\lib\\socketserver.py',
   'PYMODULE'),
  ('html', 'c:\\program files\\python38\\lib\\html\\__init__.py', 'PYMODULE'),
  ('html.entities',
   'c:\\program files\\python38\\lib\\html\\entities.py',
   'PYMODULE'),
  ('pydoc_data.topics',
   'c:\\program files\\python38\\lib\\pydoc_data\\topics.py',
   'PYMODULE'),
  ('pydoc_data',
   'c:\\program files\\python38\\lib\\pydoc_data\\__init__.py',
   'PYMODULE'),
  ('tty', 'c:\\program files\\python38\\lib\\tty.py', 'PYMODULE'),
  ('sysconfig', 'c:\\program files\\python38\\lib\\sysconfig.py', 'PYMODULE'),
  ('_osx_support',
   'c:\\program files\\python38\\lib\\_osx_support.py',
   'PYMODULE'),
  ('distutils.log',
   'c:\\program files\\python38\\lib\\distutils\\log.py',
   'PYMODULE'),
  ('distutils',
   'c:\\program files\\python38\\lib\\distutils\\__init__.py',
   'PYMODULE'),
  ('distutils.ccompiler',
   'c:\\program files\\python38\\lib\\distutils\\ccompiler.py',
   'PYMODULE'),
  ('distutils.fancy_getopt',
   'c:\\program files\\python38\\lib\\distutils\\fancy_getopt.py',
   'PYMODULE'),
  ('distutils.debug',
   'c:\\program files\\python38\\lib\\distutils\\debug.py',
   'PYMODULE'),
  ('distutils.util',
   'c:\\program files\\python38\\lib\\distutils\\util.py',
   'PYMODULE'),
  ('distutils.filelist',
   'c:\\program files\\python38\\lib\\distutils\\filelist.py',
   'PYMODULE'),
  ('distutils.dep_util',
   'c:\\program files\\python38\\lib\\distutils\\dep_util.py',
   'PYMODULE'),
  ('distutils.dir_util',
   'c:\\program files\\python38\\lib\\distutils\\dir_util.py',
   'PYMODULE'),
  ('distutils.file_util',
   'c:\\program files\\python38\\lib\\distutils\\file_util.py',
   'PYMODULE'),
  ('distutils.spawn',
   'c:\\program files\\python38\\lib\\distutils\\spawn.py',
   'PYMODULE'),
  ('distutils.errors',
   'c:\\program files\\python38\\lib\\distutils\\errors.py',
   'PYMODULE'),
  ('distutils.sysconfig',
   'c:\\program files\\python38\\lib\\distutils\\sysconfig.py',
   'PYMODULE'),
  ('distutils.text_file',
   'c:\\program files\\python38\\lib\\distutils\\text_file.py',
   'PYMODULE'),
  ('platform', 'c:\\program files\\python38\\lib\\platform.py', 'PYMODULE'),
  ('plistlib', 'c:\\program files\\python38\\lib\\plistlib.py', 'PYMODULE'),
  ('pkgutil', 'c:\\program files\\python38\\lib\\pkgutil.py', 'PYMODULE'),
  ('zipimport', 'c:\\program files\\python38\\lib\\zipimport.py', 'PYMODULE'),
  ('runpy', 'c:\\program files\\python38\\lib\\runpy.py', 'PYMODULE'),
  ('glob', 'c:\\program files\\python38\\lib\\glob.py', 'PYMODULE'),
  ('code', 'c:\\program files\\python38\\lib\\code.py', 'PYMODULE'),
  ('codeop', 'c:\\program files\\python38\\lib\\codeop.py', 'PYMODULE'),
  ('dis', 'c:\\program files\\python38\\lib\\dis.py', 'PYMODULE'),
  ('opcode', 'c:\\program files\\python38\\lib\\opcode.py', 'PYMODULE'),
  ('bdb', 'c:\\program files\\python38\\lib\\bdb.py', 'PYMODULE'),
  ('cmd', 'c:\\program files\\python38\\lib\\cmd.py', 'PYMODULE'),
  ('inspect', 'c:\\program files\\python38\\lib\\inspect.py', 'PYMODULE'),
  ('ast', 'c:\\program files\\python38\\lib\\ast.py', 'PYMODULE'),
  ('token', 'c:\\program files\\python38\\lib\\token.py', 'PYMODULE'),
  ('difflib', 'c:\\program files\\python38\\lib\\difflib.py', 'PYMODULE'),
  ('__future__', 'c:\\program files\\python38\\lib\\__future__.py', 'PYMODULE'),
  ('_compat_pickle',
   'c:\\program files\\python38\\lib\\_compat_pickle.py',
   'PYMODULE'),
  ('bisect', 'c:\\program files\\python38\\lib\\bisect.py', 'PYMODULE'),
  ('email.feedparser',
   'c:\\program files\\python38\\lib\\email\\feedparser.py',
   'PYMODULE'),
  ('email._header_value_parser',
   'c:\\program files\\python38\\lib\\email\\_header_value_parser.py',
   'PYMODULE'),
  ('email.header',
   'c:\\program files\\python38\\lib\\email\\header.py',
   'PYMODULE'),
  ('email.base64mime',
   'c:\\program files\\python38\\lib\\email\\base64mime.py',
   'PYMODULE'),
  ('email.charset',
   'c:\\program files\\python38\\lib\\email\\charset.py',
   'PYMODULE'),
  ('email.encoders',
   'c:\\program files\\python38\\lib\\email\\encoders.py',
   'PYMODULE'),
  ('email.errors',
   'c:\\program files\\python38\\lib\\email\\errors.py',
   'PYMODULE'),
  ('csv', 'c:\\program files\\python38\\lib\\csv.py', 'PYMODULE'),
  ('tokenize', 'c:\\program files\\python38\\lib\\tokenize.py', 'PYMODULE'),
  ('posixpath', 'c:\\program files\\python38\\lib\\posixpath.py', 'PYMODULE'),
  ('importlib.util',
   'c:\\program files\\python38\\lib\\importlib\\util.py',
   'PYMODULE'),
  ('tarfile', 'c:\\program files\\python38\\lib\\tarfile.py', 'PYMODULE'),
  ('lzma', 'c:\\program files\\python38\\lib\\lzma.py', 'PYMODULE'),
  ('bz2', 'c:\\program files\\python38\\lib\\bz2.py', 'PYMODULE'),
  ('fnmatch', 'c:\\program files\\python38\\lib\\fnmatch.py', 'PYMODULE'),
  ('stat', 'c:\\program files\\python38\\lib\\stat.py', 'PYMODULE'),
  ('signal', 'c:\\program files\\python38\\lib\\signal.py', 'PYMODULE'),
  ('multiprocessing.util',
   'c:\\program files\\python38\\lib\\multiprocessing\\util.py',
   'PYMODULE'),
  ('multiprocessing.forkserver',
   'c:\\program files\\python38\\lib\\multiprocessing\\forkserver.py',
   'PYMODULE'),
  ('multiprocessing.context',
   'c:\\program files\\python38\\lib\\multiprocessing\\context.py',
   'PYMODULE'),
  ('multiprocessing.popen_forkserver',
   'c:\\program files\\python38\\lib\\multiprocessing\\popen_forkserver.py',
   'PYMODULE'),
  ('multiprocessing.sharedctypes',
   'c:\\program files\\python38\\lib\\multiprocessing\\sharedctypes.py',
   'PYMODULE'),
  ('ctypes',
   'c:\\program files\\python38\\lib\\ctypes\\__init__.py',
   'PYMODULE'),
  ('ctypes._endian',
   'c:\\program files\\python38\\lib\\ctypes\\_endian.py',
   'PYMODULE'),
  ('multiprocessing.pool',
   'c:\\program files\\python38\\lib\\multiprocessing\\pool.py',
   'PYMODULE'),
  ('multiprocessing.dummy',
   'c:\\program files\\python38\\lib\\multiprocessing\\dummy\\__init__.py',
   'PYMODULE'),
  ('multiprocessing.dummy.connection',
   'c:\\program files\\python38\\lib\\multiprocessing\\dummy\\connection.py',
   'PYMODULE'),
  ('multiprocessing.managers',
   'c:\\program files\\python38\\lib\\multiprocessing\\managers.py',
   'PYMODULE'),
  ('multiprocessing.shared_memory',
   'c:\\program files\\python38\\lib\\multiprocessing\\shared_memory.py',
   'PYMODULE'),
  ('secrets', 'c:\\program files\\python38\\lib\\secrets.py', 'PYMODULE'),
  ('multiprocessing.reduction',
   'c:\\program files\\python38\\lib\\multiprocessing\\reduction.py',
   'PYMODULE'),
  ('multiprocessing.popen_fork',
   'c:\\program files\\python38\\lib\\multiprocessing\\popen_fork.py',
   'PYMODULE'),
  ('multiprocessing.popen_spawn_win32',
   'c:\\program files\\python38\\lib\\multiprocessing\\popen_spawn_win32.py',
   'PYMODULE'),
  ('subprocess', 'c:\\program files\\python38\\lib\\subprocess.py', 'PYMODULE'),
  ('multiprocessing.spawn',
   'c:\\program files\\python38\\lib\\multiprocessing\\spawn.py',
   'PYMODULE'),
  ('multiprocessing',
   'c:\\program files\\python38\\lib\\multiprocessing\\__init__.py',
   'PYMODULE'),
  ('os', 'c:\\program files\\python38\\lib\\os.py', 'PYMODULE'),
  ('stringprep', 'c:\\program files\\python38\\lib\\stringprep.py', 'PYMODULE'),
  ('_py_abc', 'c:\\program files\\python38\\lib\\_py_abc.py', 'PYMODULE'),
  ('tracemalloc',
   'c:\\program files\\python38\\lib\\tracemalloc.py',
   'PYMODULE'),
  ('pyunpack',
   'C:\\Users\\Cody\\AppData\\Roaming\\Python\\Python38\\site-packages\\pyunpack\\__init__.py',
   'PYMODULE'),
  ('pyunpack.about',
   'C:\\Users\\Cody\\AppData\\Roaming\\Python\\Python38\\site-packages\\pyunpack\\about.py',
   'PYMODULE'),
  ('easyprocess',
   'C:\\Users\\Cody\\AppData\\Roaming\\Python\\Python38\\site-packages\\easyprocess\\__init__.py',
   'PYMODULE'),
  ('easyprocess.unicodeutil',
   'C:\\Users\\Cody\\AppData\\Roaming\\Python\\Python38\\site-packages\\easyprocess\\unicodeutil.py',
   'PYMODULE'),
  ('easyprocess.about',
   'C:\\Users\\Cody\\AppData\\Roaming\\Python\\Python38\\site-packages\\easyprocess\\about.py',
   'PYMODULE'),
  ('scp',
   'C:\\Users\\Cody\\AppData\\Roaming\\Python\\Python38\\site-packages\\scp.py',
   'PYMODULE'),
  ('paramiko',
   'C:\\Users\\Cody\\AppData\\Roaming\\Python\\Python38\\site-packages\\paramiko\\__init__.py',
   'PYMODULE'),
  ('paramiko.common',
   'C:\\Users\\Cody\\AppData\\Roaming\\Python\\Python38\\site-packages\\paramiko\\common.py',
   'PYMODULE'),
  ('paramiko.py3compat',
   'C:\\Users\\Cody\\AppData\\Roaming\\Python\\Python38\\site-packages\\paramiko\\py3compat.py',
   'PYMODULE'),
  ('paramiko.proxy',
   'C:\\Users\\Cody\\AppData\\Roaming\\Python\\Python38\\site-packages\\paramiko\\proxy.py',
   'PYMODULE'),
  ('paramiko.config',
   'C:\\Users\\Cody\\AppData\\Roaming\\Python\\Python38\\site-packages\\paramiko\\config.py',
   'PYMODULE'),
  ('paramiko.hostkeys',
   'C:\\Users\\Cody\\AppData\\Roaming\\Python\\Python38\\site-packages\\paramiko\\hostkeys.py',
   'PYMODULE'),
  ('paramiko.pkey',
   'C:\\Users\\Cody\\AppData\\Roaming\\Python\\Python38\\site-packages\\paramiko\\pkey.py',
   'PYMODULE'),
  ('cryptography.hazmat.primitives.ciphers.modes',
   'C:\\Users\\Cody\\AppData\\Roaming\\Python\\Python38\\site-packages\\cryptography\\hazmat\\primitives\\ciphers\\modes.py',
   'PYMODULE'),
  ('cryptography.hazmat.primitives._cipheralgorithm',
   'C:\\Users\\Cody\\AppData\\Roaming\\Python\\Python38\\site-packages\\cryptography\\hazmat\\primitives\\_cipheralgorithm.py',
   'PYMODULE'),
  ('cryptography.utils',
   'C:\\Users\\Cody\\AppData\\Roaming\\Python\\Python38\\site-packages\\cryptography\\utils.py',
   'PYMODULE'),
  ('cryptography',
   'C:\\Users\\Cody\\AppData\\Roaming\\Python\\Python38\\site-packages\\cryptography\\__init__.py',
   'PYMODULE'),
  ('cryptography.hazmat.bindings.openssl',
   'C:\\Users\\Cody\\AppData\\Roaming\\Python\\Python38\\site-packages\\cryptography\\hazmat\\bindings\\openssl\\__init__.py',
   'PYMODULE'),
  ('cryptography.hazmat.bindings',
   'C:\\Users\\Cody\\AppData\\Roaming\\Python\\Python38\\site-packages\\cryptography\\hazmat\\bindings\\__init__.py',
   'PYMODULE'),
  ('cryptography.hazmat',
   'C:\\Users\\Cody\\AppData\\Roaming\\Python\\Python38\\site-packages\\cryptography\\hazmat\\__init__.py',
   'PYMODULE'),
  ('cryptography.hazmat.bindings.openssl._conditional',
   'C:\\Users\\Cody\\AppData\\Roaming\\Python\\Python38\\site-packages\\cryptography\\hazmat\\bindings\\openssl\\_conditional.py',
   'PYMODULE'),
  ('cryptography.hazmat.bindings.openssl.binding',
   'C:\\Users\\Cody\\AppData\\Roaming\\Python\\Python38\\site-packages\\cryptography\\hazmat\\bindings\\openssl\\binding.py',
   'PYMODULE'),
  ('cryptography.exceptions',
   'C:\\Users\\Cody\\AppData\\Roaming\\Python\\Python38\\site-packages\\cryptography\\exceptions.py',
   'PYMODULE'),
  ('cryptography.hazmat.backends.openssl.x509',
   'C:\\Users\\Cody\\AppData\\Roaming\\Python\\Python38\\site-packages\\cryptography\\hazmat\\backends\\openssl\\x509.py',
   'PYMODULE'),
  ('cryptography.x509.name',
   'C:\\Users\\Cody\\AppData\\Roaming\\Python\\Python38\\site-packages\\cryptography\\x509\\name.py',
   'PYMODULE'),
  ('cryptography.x509.oid',
   'C:\\Users\\Cody\\AppData\\Roaming\\Python\\Python38\\site-packages\\cryptography\\x509\\oid.py',
   'PYMODULE'),
  ('cryptography.hazmat._oid',
   'C:\\Users\\Cody\\AppData\\Roaming\\Python\\Python38\\site-packages\\cryptography\\hazmat\\_oid.py',
   'PYMODULE'),
  ('cryptography.x509.base',
   'C:\\Users\\Cody\\AppData\\Roaming\\Python\\Python38\\site-packages\\cryptography\\x509\\base.py',
   'PYMODULE'),
  ('cryptography.x509.extensions',
   'C:\\Users\\Cody\\AppData\\Roaming\\Python\\Python38\\site-packages\\cryptography\\x509\\extensions.py',
   'PYMODULE'),
  ('cryptography.x509.general_name',
   'C:\\Users\\Cody\\AppData\\Roaming\\Python\\Python38\\site-packages\\cryptography\\x509\\general_name.py',
   'PYMODULE'),
  ('cryptography.x509.certificate_transparency',
   'C:\\Users\\Cody\\AppData\\Roaming\\Python\\Python38\\site-packages\\cryptography\\x509\\certificate_transparency.py',
   'PYMODULE'),
  ('cryptography.hazmat.primitives.constant_time',
   'C:\\Users\\Cody\\AppData\\Roaming\\Python\\Python38\\site-packages\\cryptography\\hazmat\\primitives\\constant_time.py',
   'PYMODULE'),
  ('cryptography.hazmat._der',
   'C:\\Users\\Cody\\AppData\\Roaming\\Python\\Python38\\site-packages\\cryptography\\hazmat\\_der.py',
   'PYMODULE'),
  ('ipaddress', 'c:\\program files\\python38\\lib\\ipaddress.py', 'PYMODULE'),
  ('cryptography.hazmat.primitives.asymmetric.rsa',
   'C:\\Users\\Cody\\AppData\\Roaming\\Python\\Python38\\site-packages\\cryptography\\hazmat\\primitives\\asymmetric\\rsa.py',
   'PYMODULE'),
  ('cryptography.hazmat.primitives.asymmetric.utils',
   'C:\\Users\\Cody\\AppData\\Roaming\\Python\\Python38\\site-packages\\cryptography\\hazmat\\primitives\\asymmetric\\utils.py',
   'PYMODULE'),
  ('cryptography.hazmat.primitives._asymmetric',
   'C:\\Users\\Cody\\AppData\\Roaming\\Python\\Python38\\site-packages\\cryptography\\hazmat\\primitives\\_asymmetric.py',
   'PYMODULE'),
  ('cryptography.hazmat.primitives._serialization',
   'C:\\Users\\Cody\\AppData\\Roaming\\Python\\Python38\\site-packages\\cryptography\\hazmat\\primitives\\_serialization.py',
   'PYMODULE'),
  ('cryptography.hazmat.primitives.asymmetric.ed448',
   'C:\\Users\\Cody\\AppData\\Roaming\\Python\\Python38\\site-packages\\cryptography\\hazmat\\primitives\\asymmetric\\ed448.py',
   'PYMODULE'),
  ('cryptography.hazmat.primitives.asymmetric.ed25519',
   'C:\\Users\\Cody\\AppData\\Roaming\\Python\\Python38\\site-packages\\cryptography\\hazmat\\primitives\\asymmetric\\ed25519.py',
   'PYMODULE'),
  ('cryptography.hazmat.primitives.asymmetric.ec',
   'C:\\Users\\Cody\\AppData\\Roaming\\Python\\Python38\\site-packages\\cryptography\\hazmat\\primitives\\asymmetric\\ec.py',
   'PYMODULE'),
  ('cryptography.hazmat.primitives.asymmetric.dsa',
   'C:\\Users\\Cody\\AppData\\Roaming\\Python\\Python38\\site-packages\\cryptography\\hazmat\\primitives\\asymmetric\\dsa.py',
   'PYMODULE'),
  ('cryptography.hazmat.primitives.asymmetric',
   'C:\\Users\\Cody\\AppData\\Roaming\\Python\\Python38\\site-packages\\cryptography\\hazmat\\primitives\\asymmetric\\__init__.py',
   'PYMODULE'),
  ('cryptography.hazmat.primitives.asymmetric.dh',
   'C:\\Users\\Cody\\AppData\\Roaming\\Python\\Python38\\site-packages\\cryptography\\hazmat\\primitives\\asymmetric\\dh.py',
   'PYMODULE'),
  ('cryptography.hazmat._types',
   'C:\\Users\\Cody\\AppData\\Roaming\\Python\\Python38\\site-packages\\cryptography\\hazmat\\_types.py',
   'PYMODULE'),
  ('cryptography.hazmat.primitives.hashes',
   'C:\\Users\\Cody\\AppData\\Roaming\\Python\\Python38\\site-packages\\cryptography\\hazmat\\primitives\\hashes.py',
   'PYMODULE'),
  ('cryptography.hazmat.backends.openssl.encode_asn1',
   'C:\\Users\\Cody\\AppData\\Roaming\\Python\\Python38\\site-packages\\cryptography\\hazmat\\backends\\openssl\\encode_asn1.py',
   'PYMODULE'),
  ('cryptography.hazmat.backends.openssl.x25519',
   'C:\\Users\\Cody\\AppData\\Roaming\\Python\\Python38\\site-packages\\cryptography\\hazmat\\backends\\openssl\\x25519.py',
   'PYMODULE'),
  ('cryptography.hazmat.primitives.asymmetric.x25519',
   'C:\\Users\\Cody\\AppData\\Roaming\\Python\\Python38\\site-packages\\cryptography\\hazmat\\primitives\\asymmetric\\x25519.py',
   'PYMODULE'),
  ('cryptography.hazmat.backends.openssl.ed25519',
   'C:\\Users\\Cody\\AppData\\Roaming\\Python\\Python38\\site-packages\\cryptography\\hazmat\\backends\\openssl\\ed25519.py',
   'PYMODULE'),
  ('cryptography.hazmat.backends.openssl.dh',
   'C:\\Users\\Cody\\AppData\\Roaming\\Python\\Python38\\site-packages\\cryptography\\hazmat\\backends\\openssl\\dh.py',
   'PYMODULE'),
  ('cryptography.hazmat.backends.openssl.utils',
   'C:\\Users\\Cody\\AppData\\Roaming\\Python\\Python38\\site-packages\\cryptography\\hazmat\\backends\\openssl\\utils.py',
   'PYMODULE'),
  ('cryptography.hazmat.backends.openssl.ec',
   'C:\\Users\\Cody\\AppData\\Roaming\\Python\\Python38\\site-packages\\cryptography\\hazmat\\backends\\openssl\\ec.py',
   'PYMODULE'),
  ('cryptography.hazmat.backends.openssl',
   'C:\\Users\\Cody\\AppData\\Roaming\\Python\\Python38\\site-packages\\cryptography\\hazmat\\backends\\openssl\\__init__.py',
   'PYMODULE'),
  ('cryptography.hazmat.backends.interfaces',
   'C:\\Users\\Cody\\AppData\\Roaming\\Python\\Python38\\site-packages\\cryptography\\hazmat\\backends\\interfaces.py',
   'PYMODULE'),
  ('cryptography.hazmat.backends.openssl.decode_asn1',
   'C:\\Users\\Cody\\AppData\\Roaming\\Python\\Python38\\site-packages\\cryptography\\hazmat\\backends\\openssl\\decode_asn1.py',
   'PYMODULE'),
  ('cryptography.hazmat.backends.openssl.ciphers',
   'C:\\Users\\Cody\\AppData\\Roaming\\Python\\Python38\\site-packages\\cryptography\\hazmat\\backends\\openssl\\ciphers.py',
   'PYMODULE'),
  ('cryptography.hazmat.backends.openssl.hashes',
   'C:\\Users\\Cody\\AppData\\Roaming\\Python\\Python38\\site-packages\\cryptography\\hazmat\\backends\\openssl\\hashes.py',
   'PYMODULE'),
  ('cryptography.hazmat.backends.openssl.ed448',
   'C:\\Users\\Cody\\AppData\\Roaming\\Python\\Python38\\site-packages\\cryptography\\hazmat\\backends\\openssl\\ed448.py',
   'PYMODULE'),
  ('cryptography.hazmat.backends.openssl.dsa',
   'C:\\Users\\Cody\\AppData\\Roaming\\Python\\Python38\\site-packages\\cryptography\\hazmat\\backends\\openssl\\dsa.py',
   'PYMODULE'),
  ('cryptography.hazmat.backends.openssl.rsa',
   'C:\\Users\\Cody\\AppData\\Roaming\\Python\\Python38\\site-packages\\cryptography\\hazmat\\backends\\openssl\\rsa.py',
   'PYMODULE'),
  ('cryptography.hazmat.primitives.asymmetric.padding',
   'C:\\Users\\Cody\\AppData\\Roaming\\Python\\Python38\\site-packages\\cryptography\\hazmat\\primitives\\asymmetric\\padding.py',
   'PYMODULE'),
  ('cryptography.hazmat.backends.openssl.cmac',
   'C:\\Users\\Cody\\AppData\\Roaming\\Python\\Python38\\site-packages\\cryptography\\hazmat\\backends\\openssl\\cmac.py',
   'PYMODULE'),
  ('cryptography.hazmat.backends.openssl.backend',
   'C:\\Users\\Cody\\AppData\\Roaming\\Python\\Python38\\site-packages\\cryptography\\hazmat\\backends\\openssl\\backend.py',
   'PYMODULE'),
  ('cryptography.x509.ocsp',
   'C:\\Users\\Cody\\AppData\\Roaming\\Python\\Python38\\site-packages\\cryptography\\x509\\ocsp.py',
   'PYMODULE'),
  ('cryptography.hazmat.primitives.serialization.ssh',
   'C:\\Users\\Cody\\AppData\\Roaming\\Python\\Python38\\site-packages\\cryptography\\hazmat\\primitives\\serialization\\ssh.py',
   'PYMODULE'),
  ('cryptography.hazmat.primitives.serialization.pkcs7',
   'C:\\Users\\Cody\\AppData\\Roaming\\Python\\Python38\\site-packages\\cryptography\\hazmat\\primitives\\serialization\\pkcs7.py',
   'PYMODULE'),
  ('cryptography.hazmat.primitives.kdf.scrypt',
   'C:\\Users\\Cody\\AppData\\Roaming\\Python\\Python38\\site-packages\\cryptography\\hazmat\\primitives\\kdf\\scrypt.py',
   'PYMODULE'),
  ('cryptography.hazmat.primitives.kdf',
   'C:\\Users\\Cody\\AppData\\Roaming\\Python\\Python38\\site-packages\\cryptography\\hazmat\\primitives\\kdf\\__init__.py',
   'PYMODULE'),
  ('cryptography.hazmat.backends.openssl.poly1305',
   'C:\\Users\\Cody\\AppData\\Roaming\\Python\\Python38\\site-packages\\cryptography\\hazmat\\backends\\openssl\\poly1305.py',
   'PYMODULE'),
  ('cryptography.hazmat.backends.openssl.ocsp',
   'C:\\Users\\Cody\\AppData\\Roaming\\Python\\Python38\\site-packages\\cryptography\\hazmat\\backends\\openssl\\ocsp.py',
   'PYMODULE'),
  ('cryptography.hazmat.backends.openssl.hmac',
   'C:\\Users\\Cody\\AppData\\Roaming\\Python\\Python38\\site-packages\\cryptography\\hazmat\\backends\\openssl\\hmac.py',
   'PYMODULE'),
  ('cryptography.hazmat.backends.openssl.aead',
   'C:\\Users\\Cody\\AppData\\Roaming\\Python\\Python38\\site-packages\\cryptography\\hazmat\\backends\\openssl\\aead.py',
   'PYMODULE'),
  ('cryptography.hazmat.primitives.ciphers.aead',
   'C:\\Users\\Cody\\AppData\\Roaming\\Python\\Python38\\site-packages\\cryptography\\hazmat\\primitives\\ciphers\\aead.py',
   'PYMODULE'),
  ('cryptography.hazmat.backends.openssl.x448',
   'C:\\Users\\Cody\\AppData\\Roaming\\Python\\Python38\\site-packages\\cryptography\\hazmat\\backends\\openssl\\x448.py',
   'PYMODULE'),
  ('cryptography.hazmat.primitives.asymmetric.x448',
   'C:\\Users\\Cody\\AppData\\Roaming\\Python\\Python38\\site-packages\\cryptography\\hazmat\\primitives\\asymmetric\\x448.py',
   'PYMODULE'),
  ('cryptography.x509',
   'C:\\Users\\Cody\\AppData\\Roaming\\Python\\Python38\\site-packages\\cryptography\\x509\\__init__.py',
   'PYMODULE'),
  ('cryptography.__about__',
   'C:\\Users\\Cody\\AppData\\Roaming\\Python\\Python38\\site-packages\\cryptography\\__about__.py',
   'PYMODULE'),
  ('cryptography.hazmat.primitives.ciphers.algorithms',
   'C:\\Users\\Cody\\AppData\\Roaming\\Python\\Python38\\site-packages\\cryptography\\hazmat\\primitives\\ciphers\\algorithms.py',
   'PYMODULE'),
  ('cryptography.hazmat.primitives.ciphers',
   'C:\\Users\\Cody\\AppData\\Roaming\\Python\\Python38\\site-packages\\cryptography\\hazmat\\primitives\\ciphers\\__init__.py',
   'PYMODULE'),
  ('cryptography.hazmat.primitives.ciphers.base',
   'C:\\Users\\Cody\\AppData\\Roaming\\Python\\Python38\\site-packages\\cryptography\\hazmat\\primitives\\ciphers\\base.py',
   'PYMODULE'),
  ('cryptography.hazmat.primitives.serialization',
   'C:\\Users\\Cody\\AppData\\Roaming\\Python\\Python38\\site-packages\\cryptography\\hazmat\\primitives\\serialization\\__init__.py',
   'PYMODULE'),
  ('cryptography.hazmat.primitives.serialization.base',
   'C:\\Users\\Cody\\AppData\\Roaming\\Python\\Python38\\site-packages\\cryptography\\hazmat\\primitives\\serialization\\base.py',
   'PYMODULE'),
  ('cryptography.hazmat.primitives',
   'C:\\Users\\Cody\\AppData\\Roaming\\Python\\Python38\\site-packages\\cryptography\\hazmat\\primitives\\__init__.py',
   'PYMODULE'),
  ('cryptography.hazmat.backends',
   'C:\\Users\\Cody\\AppData\\Roaming\\Python\\Python38\\site-packages\\cryptography\\hazmat\\backends\\__init__.py',
   'PYMODULE'),
  ('bcrypt',
   'C:\\Users\\Cody\\AppData\\Roaming\\Python\\Python38\\site-packages\\bcrypt\\__init__.py',
   'PYMODULE'),
  ('bcrypt.__about__',
   'C:\\Users\\Cody\\AppData\\Roaming\\Python\\Python38\\site-packages\\bcrypt\\__about__.py',
   'PYMODULE'),
  ('six',
   'C:\\Users\\Cody\\AppData\\Roaming\\Python\\Python38\\site-packages\\six.py',
   'PYMODULE'),
  ('paramiko.agent',
   'C:\\Users\\Cody\\AppData\\Roaming\\Python\\Python38\\site-packages\\paramiko\\agent.py',
   'PYMODULE'),
  ('paramiko.win_pageant',
   'C:\\Users\\Cody\\AppData\\Roaming\\Python\\Python38\\site-packages\\paramiko\\win_pageant.py',
   'PYMODULE'),
  ('ctypes.wintypes',
   'c:\\program files\\python38\\lib\\ctypes\\wintypes.py',
   'PYMODULE'),
  ('paramiko.file',
   'C:\\Users\\Cody\\AppData\\Roaming\\Python\\Python38\\site-packages\\paramiko\\file.py',
   'PYMODULE'),
  ('paramiko.packet',
   'C:\\Users\\Cody\\AppData\\Roaming\\Python\\Python38\\site-packages\\paramiko\\packet.py',
   'PYMODULE'),
  ('paramiko.message',
   'C:\\Users\\Cody\\AppData\\Roaming\\Python\\Python38\\site-packages\\paramiko\\message.py',
   'PYMODULE'),
  ('paramiko.sftp_file',
   'C:\\Users\\Cody\\AppData\\Roaming\\Python\\Python38\\site-packages\\paramiko\\sftp_file.py',
   'PYMODULE'),
  ('paramiko.sftp_si',
   'C:\\Users\\Cody\\AppData\\Roaming\\Python\\Python38\\site-packages\\paramiko\\sftp_si.py',
   'PYMODULE'),
  ('paramiko.sftp_handle',
   'C:\\Users\\Cody\\AppData\\Roaming\\Python\\Python38\\site-packages\\paramiko\\sftp_handle.py',
   'PYMODULE'),
  ('paramiko.sftp_attr',
   'C:\\Users\\Cody\\AppData\\Roaming\\Python\\Python38\\site-packages\\paramiko\\sftp_attr.py',
   'PYMODULE'),
  ('paramiko.sftp_server',
   'C:\\Users\\Cody\\AppData\\Roaming\\Python\\Python38\\site-packages\\paramiko\\sftp_server.py',
   'PYMODULE'),
  ('paramiko.sftp_client',
   'C:\\Users\\Cody\\AppData\\Roaming\\Python\\Python38\\site-packages\\paramiko\\sftp_client.py',
   'PYMODULE'),
  ('paramiko.sftp',
   'C:\\Users\\Cody\\AppData\\Roaming\\Python\\Python38\\site-packages\\paramiko\\sftp.py',
   'PYMODULE'),
  ('paramiko.ed25519key',
   'C:\\Users\\Cody\\AppData\\Roaming\\Python\\Python38\\site-packages\\paramiko\\ed25519key.py',
   'PYMODULE'),
  ('nacl.signing',
   'C:\\Users\\Cody\\AppData\\Roaming\\Python\\Python38\\site-packages\\nacl\\signing.py',
   'PYMODULE'),
  ('nacl.utils',
   'C:\\Users\\Cody\\AppData\\Roaming\\Python\\Python38\\site-packages\\nacl\\utils.py',
   'PYMODULE'),
  ('nacl.public',
   'C:\\Users\\Cody\\AppData\\Roaming\\Python\\Python38\\site-packages\\nacl\\public.py',
   'PYMODULE'),
  ('nacl.exceptions',
   'C:\\Users\\Cody\\AppData\\Roaming\\Python\\Python38\\site-packages\\nacl\\exceptions.py',
   'PYMODULE'),
  ('nacl.encoding',
   'C:\\Users\\Cody\\AppData\\Roaming\\Python\\Python38\\site-packages\\nacl\\encoding.py',
   'PYMODULE'),
  ('nacl',
   'C:\\Users\\Cody\\AppData\\Roaming\\Python\\Python38\\site-packages\\nacl\\__init__.py',
   'PYMODULE'),
  ('nacl.bindings',
   'C:\\Users\\Cody\\AppData\\Roaming\\Python\\Python38\\site-packages\\nacl\\bindings\\__init__.py',
   'PYMODULE'),
  ('nacl.bindings.utils',
   'C:\\Users\\Cody\\AppData\\Roaming\\Python\\Python38\\site-packages\\nacl\\bindings\\utils.py',
   'PYMODULE'),
  ('nacl.bindings.sodium_core',
   'C:\\Users\\Cody\\AppData\\Roaming\\Python\\Python38\\site-packages\\nacl\\bindings\\sodium_core.py',
   'PYMODULE'),
  ('nacl.bindings.randombytes',
   'C:\\Users\\Cody\\AppData\\Roaming\\Python\\Python38\\site-packages\\nacl\\bindings\\randombytes.py',
   'PYMODULE'),
  ('nacl.bindings.crypto_sign',
   'C:\\Users\\Cody\\AppData\\Roaming\\Python\\Python38\\site-packages\\nacl\\bindings\\crypto_sign.py',
   'PYMODULE'),
  ('nacl.bindings.crypto_shorthash',
   'C:\\Users\\Cody\\AppData\\Roaming\\Python\\Python38\\site-packages\\nacl\\bindings\\crypto_shorthash.py',
   'PYMODULE'),
  ('nacl.bindings.crypto_secretstream',
   'C:\\Users\\Cody\\AppData\\Roaming\\Python\\Python38\\site-packages\\nacl\\bindings\\crypto_secretstream.py',
   'PYMODULE'),
  ('nacl.bindings.crypto_secretbox',
   'C:\\Users\\Cody\\AppData\\Roaming\\Python\\Python38\\site-packages\\nacl\\bindings\\crypto_secretbox.py',
   'PYMODULE'),
  ('nacl.bindings.crypto_scalarmult',
   'C:\\Users\\Cody\\AppData\\Roaming\\Python\\Python38\\site-packages\\nacl\\bindings\\crypto_scalarmult.py',
   'PYMODULE'),
  ('nacl.bindings.crypto_pwhash',
   'C:\\Users\\Cody\\AppData\\Roaming\\Python\\Python38\\site-packages\\nacl\\bindings\\crypto_pwhash.py',
   'PYMODULE'),
  ('nacl.bindings.crypto_kx',
   'C:\\Users\\Cody\\AppData\\Roaming\\Python\\Python38\\site-packages\\nacl\\bindings\\crypto_kx.py',
   'PYMODULE'),
  ('nacl.bindings.crypto_hash',
   'C:\\Users\\Cody\\AppData\\Roaming\\Python\\Python38\\site-packages\\nacl\\bindings\\crypto_hash.py',
   'PYMODULE'),
  ('nacl.bindings.crypto_generichash',
   'C:\\Users\\Cody\\AppData\\Roaming\\Python\\Python38\\site-packages\\nacl\\bindings\\crypto_generichash.py',
   'PYMODULE'),
  ('nacl.bindings.crypto_core',
   'C:\\Users\\Cody\\AppData\\Roaming\\Python\\Python38\\site-packages\\nacl\\bindings\\crypto_core.py',
   'PYMODULE'),
  ('nacl.bindings.crypto_box',
   'C:\\Users\\Cody\\AppData\\Roaming\\Python\\Python38\\site-packages\\nacl\\bindings\\crypto_box.py',
   'PYMODULE'),
  ('nacl.bindings.crypto_aead',
   'C:\\Users\\Cody\\AppData\\Roaming\\Python\\Python38\\site-packages\\nacl\\bindings\\crypto_aead.py',
   'PYMODULE'),
  ('paramiko.ecdsakey',
   'C:\\Users\\Cody\\AppData\\Roaming\\Python\\Python38\\site-packages\\paramiko\\ecdsakey.py',
   'PYMODULE'),
  ('paramiko.dsskey',
   'C:\\Users\\Cody\\AppData\\Roaming\\Python\\Python38\\site-packages\\paramiko\\dsskey.py',
   'PYMODULE'),
  ('paramiko.ber',
   'C:\\Users\\Cody\\AppData\\Roaming\\Python\\Python38\\site-packages\\paramiko\\ber.py',
   'PYMODULE'),
  ('paramiko.rsakey',
   'C:\\Users\\Cody\\AppData\\Roaming\\Python\\Python38\\site-packages\\paramiko\\rsakey.py',
   'PYMODULE'),
  ('paramiko.server',
   'C:\\Users\\Cody\\AppData\\Roaming\\Python\\Python38\\site-packages\\paramiko\\server.py',
   'PYMODULE'),
  ('paramiko.ssh_exception',
   'C:\\Users\\Cody\\AppData\\Roaming\\Python\\Python38\\site-packages\\paramiko\\ssh_exception.py',
   'PYMODULE'),
  ('paramiko.channel',
   'C:\\Users\\Cody\\AppData\\Roaming\\Python\\Python38\\site-packages\\paramiko\\channel.py',
   'PYMODULE'),
  ('paramiko.buffered_pipe',
   'C:\\Users\\Cody\\AppData\\Roaming\\Python\\Python38\\site-packages\\paramiko\\buffered_pipe.py',
   'PYMODULE'),
  ('paramiko.ssh_gss',
   'C:\\Users\\Cody\\AppData\\Roaming\\Python\\Python38\\site-packages\\paramiko\\ssh_gss.py',
   'PYMODULE'),
  ('sspi',
   'C:\\Users\\Cody\\AppData\\Roaming\\Python\\Python38\\site-packages\\win32\\lib\\sspi.py',
   'PYMODULE'),
  ('sspicon',
   'C:\\Users\\Cody\\AppData\\Roaming\\Python\\Python38\\site-packages\\win32\\lib\\sspicon.py',
   'PYMODULE'),
  ('pywintypes',
   'C:\\Users\\Cody\\AppData\\Roaming\\Python\\Python38\\site-packages\\win32\\lib\\pywintypes.py',
   'PYMODULE'),
  ('paramiko.auth_handler',
   'C:\\Users\\Cody\\AppData\\Roaming\\Python\\Python38\\site-packages\\paramiko\\auth_handler.py',
   'PYMODULE'),
  ('paramiko.client',
   'C:\\Users\\Cody\\AppData\\Roaming\\Python\\Python38\\site-packages\\paramiko\\client.py',
   'PYMODULE'),
  ('paramiko._winapi',
   'C:\\Users\\Cody\\AppData\\Roaming\\Python\\Python38\\site-packages\\paramiko\\_winapi.py',
   'PYMODULE'),
  ('paramiko.transport',
   'C:\\Users\\Cody\\AppData\\Roaming\\Python\\Python38\\site-packages\\paramiko\\transport.py',
   'PYMODULE'),
  ('paramiko.primes',
   'C:\\Users\\Cody\\AppData\\Roaming\\Python\\Python38\\site-packages\\paramiko\\primes.py',
   'PYMODULE'),
  ('paramiko.kex_gss',
   'C:\\Users\\Cody\\AppData\\Roaming\\Python\\Python38\\site-packages\\paramiko\\kex_gss.py',
   'PYMODULE'),
  ('paramiko.kex_ecdh_nist',
   'C:\\Users\\Cody\\AppData\\Roaming\\Python\\Python38\\site-packages\\paramiko\\kex_ecdh_nist.py',
   'PYMODULE'),
  ('paramiko.kex_group16',
   'C:\\Users\\Cody\\AppData\\Roaming\\Python\\Python38\\site-packages\\paramiko\\kex_group16.py',
   'PYMODULE'),
  ('paramiko.kex_group14',
   'C:\\Users\\Cody\\AppData\\Roaming\\Python\\Python38\\site-packages\\paramiko\\kex_group14.py',
   'PYMODULE'),
  ('paramiko.kex_group1',
   'C:\\Users\\Cody\\AppData\\Roaming\\Python\\Python38\\site-packages\\paramiko\\kex_group1.py',
   'PYMODULE'),
  ('paramiko.kex_gex',
   'C:\\Users\\Cody\\AppData\\Roaming\\Python\\Python38\\site-packages\\paramiko\\kex_gex.py',
   'PYMODULE'),
  ('paramiko.kex_curve25519',
   'C:\\Users\\Cody\\AppData\\Roaming\\Python\\Python38\\site-packages\\paramiko\\kex_curve25519.py',
   'PYMODULE'),
  ('paramiko.compress',
   'C:\\Users\\Cody\\AppData\\Roaming\\Python\\Python38\\site-packages\\paramiko\\compress.py',
   'PYMODULE'),
  ('paramiko.pipe',
   'C:\\Users\\Cody\\AppData\\Roaming\\Python\\Python38\\site-packages\\paramiko\\pipe.py',
   'PYMODULE'),
  ('paramiko.util',
   'C:\\Users\\Cody\\AppData\\Roaming\\Python\\Python38\\site-packages\\paramiko\\util.py',
   'PYMODULE'),
  ('paramiko._version',
   'C:\\Users\\Cody\\AppData\\Roaming\\Python\\Python38\\site-packages\\paramiko\\_version.py',
   'PYMODULE')],
 [('api-ms-win-crt-heap-l1-1-0.dll',
   'C:\\Program '
   'Files\\AdoptOpenJDK\\jdk-11.0.10.9-hotspot\\bin\\api-ms-win-crt-heap-l1-1-0.dll',
   'BINARY'),
  ('api-ms-win-crt-stdio-l1-1-0.dll',
   'C:\\Program '
   'Files\\AdoptOpenJDK\\jdk-11.0.10.9-hotspot\\bin\\api-ms-win-crt-stdio-l1-1-0.dll',
   'BINARY'),
  ('api-ms-win-crt-math-l1-1-0.dll',
   'C:\\Program '
   'Files\\AdoptOpenJDK\\jdk-11.0.10.9-hotspot\\bin\\api-ms-win-crt-math-l1-1-0.dll',
   'BINARY'),
  ('api-ms-win-crt-locale-l1-1-0.dll',
   'C:\\Program '
   'Files\\AdoptOpenJDK\\jdk-11.0.10.9-hotspot\\bin\\api-ms-win-crt-locale-l1-1-0.dll',
   'BINARY'),
  ('VCRUNTIME140.dll',
   'c:\\program files\\python38\\VCRUNTIME140.dll',
   'BINARY'),
  ('api-ms-win-crt-runtime-l1-1-0.dll',
   'C:\\Program '
   'Files\\AdoptOpenJDK\\jdk-11.0.10.9-hotspot\\bin\\api-ms-win-crt-runtime-l1-1-0.dll',
   'BINARY'),
  ('python38.dll', 'c:\\program files\\python38\\python38.dll', 'BINARY'),
  ('ucrtbase.dll',
   'C:\\Program Files\\AdoptOpenJDK\\jdk-11.0.10.9-hotspot\\bin\\ucrtbase.dll',
   'BINARY'),
  ('api-ms-win-crt-string-l1-1-0.dll',
   'C:\\Program '
   'Files\\AdoptOpenJDK\\jdk-11.0.10.9-hotspot\\bin\\api-ms-win-crt-string-l1-1-0.dll',
   'BINARY'),
  ('api-ms-win-crt-convert-l1-1-0.dll',
   'C:\\Program '
   'Files\\AdoptOpenJDK\\jdk-11.0.10.9-hotspot\\bin\\api-ms-win-crt-convert-l1-1-0.dll',
   'BINARY'),
  ('api-ms-win-crt-environment-l1-1-0.dll',
   'C:\\Program '
   'Files\\AdoptOpenJDK\\jdk-11.0.10.9-hotspot\\bin\\api-ms-win-crt-environment-l1-1-0.dll',
   'BINARY'),
  ('api-ms-win-crt-process-l1-1-0.dll',
   'C:\\Program '
   'Files\\AdoptOpenJDK\\jdk-11.0.10.9-hotspot\\bin\\api-ms-win-crt-process-l1-1-0.dll',
   'BINARY'),
  ('api-ms-win-crt-conio-l1-1-0.dll',
   'C:\\Program '
   'Files\\AdoptOpenJDK\\jdk-11.0.10.9-hotspot\\bin\\api-ms-win-crt-conio-l1-1-0.dll',
   'BINARY'),
  ('api-ms-win-crt-filesystem-l1-1-0.dll',
   'C:\\Program '
   'Files\\AdoptOpenJDK\\jdk-11.0.10.9-hotspot\\bin\\api-ms-win-crt-filesystem-l1-1-0.dll',
   'BINARY'),
  ('api-ms-win-crt-time-l1-1-0.dll',
   'C:\\Program '
   'Files\\AdoptOpenJDK\\jdk-11.0.10.9-hotspot\\bin\\api-ms-win-crt-time-l1-1-0.dll',
   'BINARY'),
  ('api-ms-win-core-libraryloader-l1-1-0.dll',
   'C:\\Program '
   'Files\\AdoptOpenJDK\\jdk-11.0.10.9-hotspot\\bin\\api-ms-win-core-libraryloader-l1-1-0.dll',
   'BINARY'),
  ('api-ms-win-core-sysinfo-l1-1-0.dll',
   'C:\\Program '
   'Files\\AdoptOpenJDK\\jdk-11.0.10.9-hotspot\\bin\\api-ms-win-core-sysinfo-l1-1-0.dll',
   'BINARY'),
  ('api-ms-win-core-memory-l1-1-0.dll',
   'C:\\Program '
   'Files\\AdoptOpenJDK\\jdk-11.0.10.9-hotspot\\bin\\api-ms-win-core-memory-l1-1-0.dll',
   'BINARY'),
  ('api-ms-win-core-namedpipe-l1-1-0.dll',
   'C:\\Program '
   'Files\\AdoptOpenJDK\\jdk-11.0.10.9-hotspot\\bin\\api-ms-win-core-namedpipe-l1-1-0.dll',
   'BINARY'),
  ('api-ms-win-core-localization-l1-2-0.dll',
   'C:\\Program '
   'Files\\AdoptOpenJDK\\jdk-11.0.10.9-hotspot\\bin\\api-ms-win-core-localization-l1-2-0.dll',
   'BINARY'),
  ('api-ms-win-core-string-l1-1-0.dll',
   'C:\\Program '
   'Files\\AdoptOpenJDK\\jdk-11.0.10.9-hotspot\\bin\\api-ms-win-core-string-l1-1-0.dll',
   'BINARY'),
  ('api-ms-win-core-interlocked-l1-1-0.dll',
   'C:\\Program '
   'Files\\AdoptOpenJDK\\jdk-11.0.10.9-hotspot\\bin\\api-ms-win-core-interlocked-l1-1-0.dll',
   'BINARY'),
  ('api-ms-win-core-rtlsupport-l1-1-0.dll',
   'C:\\Program '
   'Files\\AdoptOpenJDK\\jdk-11.0.10.9-hotspot\\bin\\api-ms-win-core-rtlsupport-l1-1-0.dll',
   'BINARY'),
  ('api-ms-win-core-synch-l1-1-0.dll',
   'C:\\Program '
   'Files\\AdoptOpenJDK\\jdk-11.0.10.9-hotspot\\bin\\api-ms-win-core-synch-l1-1-0.dll',
   'BINARY'),
  ('api-ms-win-core-processenvironment-l1-1-0.dll',
   'C:\\Program '
   'Files\\AdoptOpenJDK\\jdk-11.0.10.9-hotspot\\bin\\api-ms-win-core-processenvironment-l1-1-0.dll',
   'BINARY'),
  ('api-ms-win-core-util-l1-1-0.dll',
   'C:\\Program '
   'Files\\AdoptOpenJDK\\jdk-11.0.10.9-hotspot\\bin\\api-ms-win-core-util-l1-1-0.dll',
   'BINARY'),
  ('api-ms-win-core-processthreads-l1-1-0.dll',
   'C:\\Program '
   'Files\\AdoptOpenJDK\\jdk-11.0.10.9-hotspot\\bin\\api-ms-win-core-processthreads-l1-1-0.dll',
   'BINARY'),
  ('api-ms-win-core-handle-l1-1-0.dll',
   'C:\\Program '
   'Files\\AdoptOpenJDK\\jdk-11.0.10.9-hotspot\\bin\\api-ms-win-core-handle-l1-1-0.dll',
   'BINARY'),
  ('api-ms-win-core-synch-l1-2-0.dll',
   'C:\\Program '
   'Files\\AdoptOpenJDK\\jdk-11.0.10.9-hotspot\\bin\\api-ms-win-core-synch-l1-2-0.dll',
   'BINARY'),
  ('api-ms-win-core-console-l1-1-0.dll',
   'C:\\Program '
   'Files\\AdoptOpenJDK\\jdk-11.0.10.9-hotspot\\bin\\api-ms-win-core-console-l1-1-0.dll',
   'BINARY'),
  ('api-ms-win-core-errorhandling-l1-1-0.dll',
   'C:\\Program '
   'Files\\AdoptOpenJDK\\jdk-11.0.10.9-hotspot\\bin\\api-ms-win-core-errorhandling-l1-1-0.dll',
   'BINARY'),
  ('api-ms-win-core-datetime-l1-1-0.dll',
   'C:\\Program '
   'Files\\AdoptOpenJDK\\jdk-11.0.10.9-hotspot\\bin\\api-ms-win-core-datetime-l1-1-0.dll',
   'BINARY'),
  ('api-ms-win-core-file-l2-1-0.dll',
   'C:\\Program '
   'Files\\AdoptOpenJDK\\jdk-11.0.10.9-hotspot\\bin\\api-ms-win-core-file-l2-1-0.dll',
   'BINARY'),
  ('api-ms-win-core-timezone-l1-1-0.dll',
   'C:\\Program '
   'Files\\AdoptOpenJDK\\jdk-11.0.10.9-hotspot\\bin\\api-ms-win-core-timezone-l1-1-0.dll',
   'BINARY'),
  ('api-ms-win-core-profile-l1-1-0.dll',
   'C:\\Program '
   'Files\\AdoptOpenJDK\\jdk-11.0.10.9-hotspot\\bin\\api-ms-win-core-profile-l1-1-0.dll',
   'BINARY'),
  ('api-ms-win-core-debug-l1-1-0.dll',
   'C:\\Program '
   'Files\\AdoptOpenJDK\\jdk-11.0.10.9-hotspot\\bin\\api-ms-win-core-debug-l1-1-0.dll',
   'BINARY'),
  ('api-ms-win-core-processthreads-l1-1-1.dll',
   'C:\\Program '
   'Files\\AdoptOpenJDK\\jdk-11.0.10.9-hotspot\\bin\\api-ms-win-core-processthreads-l1-1-1.dll',
   'BINARY'),
  ('api-ms-win-core-file-l1-2-0.dll',
   'C:\\Program '
   'Files\\AdoptOpenJDK\\jdk-11.0.10.9-hotspot\\bin\\api-ms-win-core-file-l1-2-0.dll',
   'BINARY'),
  ('api-ms-win-core-file-l1-1-0.dll',
   'C:\\Program '
   'Files\\AdoptOpenJDK\\jdk-11.0.10.9-hotspot\\bin\\api-ms-win-core-file-l1-1-0.dll',
   'BINARY'),
  ('api-ms-win-core-heap-l1-1-0.dll',
   'C:\\Program '
   'Files\\AdoptOpenJDK\\jdk-11.0.10.9-hotspot\\bin\\api-ms-win-core-heap-l1-1-0.dll',
   'BINARY'),
  ('pywintypes38.dll',
   'C:\\Users\\Cody\\AppData\\Roaming\\Python\\Python38\\site-packages\\pywin32_system32\\pywintypes38.dll',
   'BINARY'),
  ('_multiprocessing',
   'c:\\program files\\python38\\DLLs\\_multiprocessing.pyd',
   'EXTENSION'),
  ('unicodedata',
   'c:\\program files\\python38\\DLLs\\unicodedata.pyd',
   'EXTENSION'),
  ('select', 'c:\\program files\\python38\\DLLs\\select.pyd', 'EXTENSION'),
  ('_socket', 'c:\\program files\\python38\\DLLs\\_socket.pyd', 'EXTENSION'),
  ('_overlapped',
   'c:\\program files\\python38\\DLLs\\_overlapped.pyd',
   'EXTENSION'),
  ('_ssl', 'c:\\program files\\python38\\DLLs\\_ssl.pyd', 'EXTENSION'),
  ('_asyncio', 'c:\\program files\\python38\\DLLs\\_asyncio.pyd', 'EXTENSION'),
  ('_queue', 'c:\\program files\\python38\\DLLs\\_queue.pyd', 'EXTENSION'),
  ('pyexpat', 'c:\\program files\\python38\\DLLs\\pyexpat.pyd', 'EXTENSION'),
  ('_decimal', 'c:\\program files\\python38\\DLLs\\_decimal.pyd', 'EXTENSION'),
  ('_hashlib', 'c:\\program files\\python38\\DLLs\\_hashlib.pyd', 'EXTENSION'),
  ('_lzma', 'c:\\program files\\python38\\DLLs\\_lzma.pyd', 'EXTENSION'),
  ('_bz2', 'c:\\program files\\python38\\DLLs\\_bz2.pyd', 'EXTENSION'),
  ('_ctypes', 'c:\\program files\\python38\\DLLs\\_ctypes.pyd', 'EXTENSION'),
  ('_cffi_backend',
   'C:\\Users\\Cody\\AppData\\Roaming\\Python\\Python38\\site-packages\\_cffi_backend.cp38-win_amd64.pyd',
   'EXTENSION'),
  ('cryptography.hazmat.bindings._openssl',
   'C:\\Users\\Cody\\AppData\\Roaming\\Python\\Python38\\site-packages\\cryptography\\hazmat\\bindings\\_openssl.pyd',
   'EXTENSION'),
  ('bcrypt._bcrypt',
   'C:\\Users\\Cody\\AppData\\Roaming\\Python\\Python38\\site-packages\\bcrypt\\_bcrypt.pyd',
   'EXTENSION'),
  ('nacl._sodium',
   'C:\\Users\\Cody\\AppData\\Roaming\\Python\\Python38\\site-packages\\nacl\\_sodium.cp38-win_amd64.pyd',
   'EXTENSION'),
  ('win32security',
   'C:\\Users\\Cody\\AppData\\Roaming\\Python\\Python38\\site-packages\\win32\\win32security.pyd',
   'EXTENSION'),
  ('_win32sysloader',
   'C:\\Users\\Cody\\AppData\\Roaming\\Python\\Python38\\site-packages\\win32\\_win32sysloader.pyd',
   'EXTENSION'),
  ('libssl-1_1.dll',
   'c:\\program files\\python38\\DLLs\\libssl-1_1.dll',
   'BINARY'),
  ('libcrypto-1_1.dll',
   'c:\\program files\\python38\\DLLs\\libcrypto-1_1.dll',
   'BINARY'),
  ('api-ms-win-crt-utility-l1-1-0.dll',
   'C:\\Program '
   'Files\\AdoptOpenJDK\\jdk-11.0.10.9-hotspot\\bin\\api-ms-win-crt-utility-l1-1-0.dll',
   'BINARY'),
  ('libffi-7.dll', 'c:\\program files\\python38\\DLLs\\libffi-7.dll', 'BINARY'),
  ('python3.dll', 'c:\\program files\\python38\\python3.dll', 'BINARY')],
 [],
 [],
 [('base_library.zip',
   'C:\\Users\\Cody\\Desktop\\FuzeBuildSelector\\testwithSSH\\build\\testingwithSSH\\base_library.zip',
   'DATA'),
  ('cryptography-3.4.7-py3.8.egg-info\\RECORD',
   'c:\\users\\cody\\appdata\\roaming\\python\\python38\\site-packages\\cryptography-3.4.7.dist-info\\RECORD',
   'DATA'),
  ('cryptography-3.4.7-py3.8.egg-info\\INSTALLER',
   'c:\\users\\cody\\appdata\\roaming\\python\\python38\\site-packages\\cryptography-3.4.7.dist-info\\INSTALLER',
   'DATA'),
  ('cryptography-3.4.7-py3.8.egg-info\\LICENSE',
   'c:\\users\\cody\\appdata\\roaming\\python\\python38\\site-packages\\cryptography-3.4.7.dist-info\\LICENSE',
   'DATA'),
  ('cryptography-3.4.7-py3.8.egg-info\\LICENSE.BSD',
   'c:\\users\\cody\\appdata\\roaming\\python\\python38\\site-packages\\cryptography-3.4.7.dist-info\\LICENSE.BSD',
   'DATA'),
  ('cryptography-3.4.7-py3.8.egg-info\\LICENSE.PSF',
   'c:\\users\\cody\\appdata\\roaming\\python\\python38\\site-packages\\cryptography-3.4.7.dist-info\\LICENSE.PSF',
   'DATA'),
  ('cryptography-3.4.7-py3.8.egg-info\\top_level.txt',
   'c:\\users\\cody\\appdata\\roaming\\python\\python38\\site-packages\\cryptography-3.4.7.dist-info\\top_level.txt',
   'DATA'),
  ('cryptography-3.4.7-py3.8.egg-info\\LICENSE.APACHE',
   'c:\\users\\cody\\appdata\\roaming\\python\\python38\\site-packages\\cryptography-3.4.7.dist-info\\LICENSE.APACHE',
   'DATA'),
  ('Include\\pyconfig.h',
   'c:\\program files\\python38\\Include\\pyconfig.h',
   'DATA'),
  ('cryptography-3.4.7-py3.8.egg-info\\METADATA',
   'c:\\users\\cody\\appdata\\roaming\\python\\python38\\site-packages\\cryptography-3.4.7.dist-info\\METADATA',
   'DATA'),
  ('cryptography-3.4.7-py3.8.egg-info\\WHEEL',
   'c:\\users\\cody\\appdata\\roaming\\python\\python38\\site-packages\\cryptography-3.4.7.dist-info\\WHEEL',
   'DATA')],
 [])
