('C:\\Users\\Cody\\Desktop\\FuzeBuildSelector\\testwithSSH\\dist\\testingwithSSH.exe',
 True,
 False,
 False,
 'C:\\Users\\Cody\\AppData\\Roaming\\Python\\Python38\\site-packages\\PyInstaller\\bootloader\\images\\icon-console.ico',
 None,
 False,
 False,
 '<?xml version="1.0" encoding="UTF-8" standalone="yes"?><assembly xmlns="urn:schemas-microsoft-com:asm.v1" manifestVersion="1.0"><assemblyIdentity type="win32" name="testingwithSSH" processorArchitecture="amd64" version="1.0.0.0"/><trustInfo xmlns="urn:schemas-microsoft-com:asm.v3"><security><requestedPrivileges><requestedExecutionLevel level="asInvoker" uiAccess="false"/></requestedPrivileges></security></trustInfo><dependency><dependentAssembly><assemblyIdentity type="win32" name="Microsoft.Windows.Common-Controls" language="*" processorArchitecture="*" version="6.0.0.0" publicKeyToken="6595b64144ccf1df"/><compatibility xmlns="urn:schemas-microsoft-com:compatibility.v1"/></dependentAssembly></dependency><compatibility xmlns="urn:schemas-microsoft-com:compatibility.v1"><application><supportedOS Id="{e2011457-1546-43c5-a5fe-008deee3d3f0}"/><supportedOS Id="{35138b9a-5d96-4fbd-8e2d-a2440225f93a}"/><supportedOS Id="{4a2f28e3-53b9-4441-ba9c-d69d4a4a6e38}"/><supportedOS Id="{1f676c76-80e1-4239-95bb-83d0f6d0da78}"/><supportedOS Id="{8e0f7a12-bfb3-4fe8-b9a5-48fd50a15a9a}"/></application></compatibility><application xmlns="urn:schemas-microsoft-com:asm.v3"><windowsSettings><longPathAware xmlns="http://schemas.microsoft.com/SMI/2016/WindowsSettings">true</longPathAware></windowsSettings></application></assembly>',
 True,
 'testingwithSSH.pkg',
 [('PYZ-00.pyz',
   'C:\\Users\\Cody\\Desktop\\FuzeBuildSelector\\testwithSSH\\build\\testingwithSSH\\PYZ-00.pyz',
   'PYZ'),
  ('struct',
   'C:\\Users\\Cody\\Desktop\\FuzeBuildSelector\\testwithSSH\\build\\testingwithSSH\\localpycos\\struct.pyo',
   'PYMODULE'),
  ('pyimod01_os_path',
   'C:\\Users\\Cody\\AppData\\Roaming\\Python\\Python38\\site-packages\\PyInstaller\\loader\\pyimod01_os_path.pyc',
   'PYMODULE'),
  ('pyimod02_archive',
   'C:\\Users\\Cody\\AppData\\Roaming\\Python\\Python38\\site-packages\\PyInstaller\\loader\\pyimod02_archive.pyc',
   'PYMODULE'),
  ('pyimod03_importers',
   'C:\\Users\\Cody\\AppData\\Roaming\\Python\\Python38\\site-packages\\PyInstaller\\loader\\pyimod03_importers.pyc',
   'PYMODULE'),
  ('pyiboot01_bootstrap',
   'C:\\Users\\Cody\\AppData\\Roaming\\Python\\Python38\\site-packages\\PyInstaller\\loader\\pyiboot01_bootstrap.py',
   'PYSOURCE'),
  ('pyi_rth_multiprocessing',
   'C:\\Users\\Cody\\AppData\\Roaming\\Python\\Python38\\site-packages\\PyInstaller\\hooks\\rthooks\\pyi_rth_multiprocessing.py',
   'PYSOURCE'),
  ('testingwithSSH',
   'C:\\Users\\Cody\\Desktop\\FuzeBuildSelector\\testwithSSH\\testingwithSSH.py',
   'PYSOURCE'),
  ('api-ms-win-crt-heap-l1-1-0.dll',
   'C:\\Program '
   'Files\\AdoptOpenJDK\\jdk-11.0.10.9-hotspot\\bin\\api-ms-win-crt-heap-l1-1-0.dll',
   'BINARY'),
  ('api-ms-win-crt-stdio-l1-1-0.dll',
   'C:\\Program '
   'Files\\AdoptOpenJDK\\jdk-11.0.10.9-hotspot\\bin\\api-ms-win-crt-stdio-l1-1-0.dll',
   'BINARY'),
  ('api-ms-win-crt-math-l1-1-0.dll',
   'C:\\Program '
   'Files\\AdoptOpenJDK\\jdk-11.0.10.9-hotspot\\bin\\api-ms-win-crt-math-l1-1-0.dll',
   'BINARY'),
  ('api-ms-win-crt-locale-l1-1-0.dll',
   'C:\\Program '
   'Files\\AdoptOpenJDK\\jdk-11.0.10.9-hotspot\\bin\\api-ms-win-crt-locale-l1-1-0.dll',
   'BINARY'),
  ('VCRUNTIME140.dll',
   'c:\\program files\\python38\\VCRUNTIME140.dll',
   'BINARY'),
  ('api-ms-win-crt-runtime-l1-1-0.dll',
   'C:\\Program '
   'Files\\AdoptOpenJDK\\jdk-11.0.10.9-hotspot\\bin\\api-ms-win-crt-runtime-l1-1-0.dll',
   'BINARY'),
  ('python38.dll', 'c:\\program files\\python38\\python38.dll', 'BINARY'),
  ('ucrtbase.dll',
   'C:\\Program Files\\AdoptOpenJDK\\jdk-11.0.10.9-hotspot\\bin\\ucrtbase.dll',
   'BINARY'),
  ('api-ms-win-crt-string-l1-1-0.dll',
   'C:\\Program '
   'Files\\AdoptOpenJDK\\jdk-11.0.10.9-hotspot\\bin\\api-ms-win-crt-string-l1-1-0.dll',
   'BINARY'),
  ('api-ms-win-crt-convert-l1-1-0.dll',
   'C:\\Program '
   'Files\\AdoptOpenJDK\\jdk-11.0.10.9-hotspot\\bin\\api-ms-win-crt-convert-l1-1-0.dll',
   'BINARY'),
  ('api-ms-win-crt-environment-l1-1-0.dll',
   'C:\\Program '
   'Files\\AdoptOpenJDK\\jdk-11.0.10.9-hotspot\\bin\\api-ms-win-crt-environment-l1-1-0.dll',
   'BINARY'),
  ('api-ms-win-crt-process-l1-1-0.dll',
   'C:\\Program '
   'Files\\AdoptOpenJDK\\jdk-11.0.10.9-hotspot\\bin\\api-ms-win-crt-process-l1-1-0.dll',
   'BINARY'),
  ('api-ms-win-crt-conio-l1-1-0.dll',
   'C:\\Program '
   'Files\\AdoptOpenJDK\\jdk-11.0.10.9-hotspot\\bin\\api-ms-win-crt-conio-l1-1-0.dll',
   'BINARY'),
  ('api-ms-win-crt-filesystem-l1-1-0.dll',
   'C:\\Program '
   'Files\\AdoptOpenJDK\\jdk-11.0.10.9-hotspot\\bin\\api-ms-win-crt-filesystem-l1-1-0.dll',
   'BINARY'),
  ('api-ms-win-crt-time-l1-1-0.dll',
   'C:\\Program '
   'Files\\AdoptOpenJDK\\jdk-11.0.10.9-hotspot\\bin\\api-ms-win-crt-time-l1-1-0.dll',
   'BINARY'),
  ('api-ms-win-core-libraryloader-l1-1-0.dll',
   'C:\\Program '
   'Files\\AdoptOpenJDK\\jdk-11.0.10.9-hotspot\\bin\\api-ms-win-core-libraryloader-l1-1-0.dll',
   'BINARY'),
  ('api-ms-win-core-sysinfo-l1-1-0.dll',
   'C:\\Program '
   'Files\\AdoptOpenJDK\\jdk-11.0.10.9-hotspot\\bin\\api-ms-win-core-sysinfo-l1-1-0.dll',
   'BINARY'),
  ('api-ms-win-core-memory-l1-1-0.dll',
   'C:\\Program '
   'Files\\AdoptOpenJDK\\jdk-11.0.10.9-hotspot\\bin\\api-ms-win-core-memory-l1-1-0.dll',
   'BINARY'),
  ('api-ms-win-core-namedpipe-l1-1-0.dll',
   'C:\\Program '
   'Files\\AdoptOpenJDK\\jdk-11.0.10.9-hotspot\\bin\\api-ms-win-core-namedpipe-l1-1-0.dll',
   'BINARY'),
  ('api-ms-win-core-localization-l1-2-0.dll',
   'C:\\Program '
   'Files\\AdoptOpenJDK\\jdk-11.0.10.9-hotspot\\bin\\api-ms-win-core-localization-l1-2-0.dll',
   'BINARY'),
  ('api-ms-win-core-string-l1-1-0.dll',
   'C:\\Program '
   'Files\\AdoptOpenJDK\\jdk-11.0.10.9-hotspot\\bin\\api-ms-win-core-string-l1-1-0.dll',
   'BINARY'),
  ('api-ms-win-core-interlocked-l1-1-0.dll',
   'C:\\Program '
   'Files\\AdoptOpenJDK\\jdk-11.0.10.9-hotspot\\bin\\api-ms-win-core-interlocked-l1-1-0.dll',
   'BINARY'),
  ('api-ms-win-core-rtlsupport-l1-1-0.dll',
   'C:\\Program '
   'Files\\AdoptOpenJDK\\jdk-11.0.10.9-hotspot\\bin\\api-ms-win-core-rtlsupport-l1-1-0.dll',
   'BINARY'),
  ('api-ms-win-core-synch-l1-1-0.dll',
   'C:\\Program '
   'Files\\AdoptOpenJDK\\jdk-11.0.10.9-hotspot\\bin\\api-ms-win-core-synch-l1-1-0.dll',
   'BINARY'),
  ('api-ms-win-core-processenvironment-l1-1-0.dll',
   'C:\\Program '
   'Files\\AdoptOpenJDK\\jdk-11.0.10.9-hotspot\\bin\\api-ms-win-core-processenvironment-l1-1-0.dll',
   'BINARY'),
  ('api-ms-win-core-util-l1-1-0.dll',
   'C:\\Program '
   'Files\\AdoptOpenJDK\\jdk-11.0.10.9-hotspot\\bin\\api-ms-win-core-util-l1-1-0.dll',
   'BINARY'),
  ('api-ms-win-core-processthreads-l1-1-0.dll',
   'C:\\Program '
   'Files\\AdoptOpenJDK\\jdk-11.0.10.9-hotspot\\bin\\api-ms-win-core-processthreads-l1-1-0.dll',
   'BINARY'),
  ('api-ms-win-core-handle-l1-1-0.dll',
   'C:\\Program '
   'Files\\AdoptOpenJDK\\jdk-11.0.10.9-hotspot\\bin\\api-ms-win-core-handle-l1-1-0.dll',
   'BINARY'),
  ('api-ms-win-core-synch-l1-2-0.dll',
   'C:\\Program '
   'Files\\AdoptOpenJDK\\jdk-11.0.10.9-hotspot\\bin\\api-ms-win-core-synch-l1-2-0.dll',
   'BINARY'),
  ('api-ms-win-core-console-l1-1-0.dll',
   'C:\\Program '
   'Files\\AdoptOpenJDK\\jdk-11.0.10.9-hotspot\\bin\\api-ms-win-core-console-l1-1-0.dll',
   'BINARY'),
  ('api-ms-win-core-errorhandling-l1-1-0.dll',
   'C:\\Program '
   'Files\\AdoptOpenJDK\\jdk-11.0.10.9-hotspot\\bin\\api-ms-win-core-errorhandling-l1-1-0.dll',
   'BINARY'),
  ('api-ms-win-core-datetime-l1-1-0.dll',
   'C:\\Program '
   'Files\\AdoptOpenJDK\\jdk-11.0.10.9-hotspot\\bin\\api-ms-win-core-datetime-l1-1-0.dll',
   'BINARY'),
  ('api-ms-win-core-file-l2-1-0.dll',
   'C:\\Program '
   'Files\\AdoptOpenJDK\\jdk-11.0.10.9-hotspot\\bin\\api-ms-win-core-file-l2-1-0.dll',
   'BINARY'),
  ('api-ms-win-core-timezone-l1-1-0.dll',
   'C:\\Program '
   'Files\\AdoptOpenJDK\\jdk-11.0.10.9-hotspot\\bin\\api-ms-win-core-timezone-l1-1-0.dll',
   'BINARY'),
  ('api-ms-win-core-profile-l1-1-0.dll',
   'C:\\Program '
   'Files\\AdoptOpenJDK\\jdk-11.0.10.9-hotspot\\bin\\api-ms-win-core-profile-l1-1-0.dll',
   'BINARY'),
  ('api-ms-win-core-debug-l1-1-0.dll',
   'C:\\Program '
   'Files\\AdoptOpenJDK\\jdk-11.0.10.9-hotspot\\bin\\api-ms-win-core-debug-l1-1-0.dll',
   'BINARY'),
  ('api-ms-win-core-processthreads-l1-1-1.dll',
   'C:\\Program '
   'Files\\AdoptOpenJDK\\jdk-11.0.10.9-hotspot\\bin\\api-ms-win-core-processthreads-l1-1-1.dll',
   'BINARY'),
  ('api-ms-win-core-file-l1-2-0.dll',
   'C:\\Program '
   'Files\\AdoptOpenJDK\\jdk-11.0.10.9-hotspot\\bin\\api-ms-win-core-file-l1-2-0.dll',
   'BINARY'),
  ('api-ms-win-core-file-l1-1-0.dll',
   'C:\\Program '
   'Files\\AdoptOpenJDK\\jdk-11.0.10.9-hotspot\\bin\\api-ms-win-core-file-l1-1-0.dll',
   'BINARY'),
  ('api-ms-win-core-heap-l1-1-0.dll',
   'C:\\Program '
   'Files\\AdoptOpenJDK\\jdk-11.0.10.9-hotspot\\bin\\api-ms-win-core-heap-l1-1-0.dll',
   'BINARY'),
  ('pywintypes38.dll',
   'C:\\Users\\Cody\\AppData\\Roaming\\Python\\Python38\\site-packages\\pywin32_system32\\pywintypes38.dll',
   'BINARY'),
  ('_multiprocessing',
   'c:\\program files\\python38\\DLLs\\_multiprocessing.pyd',
   'EXTENSION'),
  ('unicodedata',
   'c:\\program files\\python38\\DLLs\\unicodedata.pyd',
   'EXTENSION'),
  ('select', 'c:\\program files\\python38\\DLLs\\select.pyd', 'EXTENSION'),
  ('_socket', 'c:\\program files\\python38\\DLLs\\_socket.pyd', 'EXTENSION'),
  ('_overlapped',
   'c:\\program files\\python38\\DLLs\\_overlapped.pyd',
   'EXTENSION'),
  ('_ssl', 'c:\\program files\\python38\\DLLs\\_ssl.pyd', 'EXTENSION'),
  ('_asyncio', 'c:\\program files\\python38\\DLLs\\_asyncio.pyd', 'EXTENSION'),
  ('_queue', 'c:\\program files\\python38\\DLLs\\_queue.pyd', 'EXTENSION'),
  ('pyexpat', 'c:\\program files\\python38\\DLLs\\pyexpat.pyd', 'EXTENSION'),
  ('_decimal', 'c:\\program files\\python38\\DLLs\\_decimal.pyd', 'EXTENSION'),
  ('_hashlib', 'c:\\program files\\python38\\DLLs\\_hashlib.pyd', 'EXTENSION'),
  ('_lzma', 'c:\\program files\\python38\\DLLs\\_lzma.pyd', 'EXTENSION'),
  ('_bz2', 'c:\\program files\\python38\\DLLs\\_bz2.pyd', 'EXTENSION'),
  ('_ctypes', 'c:\\program files\\python38\\DLLs\\_ctypes.pyd', 'EXTENSION'),
  ('_cffi_backend',
   'C:\\Users\\Cody\\AppData\\Roaming\\Python\\Python38\\site-packages\\_cffi_backend.cp38-win_amd64.pyd',
   'EXTENSION'),
  ('cryptography.hazmat.bindings._openssl',
   'C:\\Users\\Cody\\AppData\\Roaming\\Python\\Python38\\site-packages\\cryptography\\hazmat\\bindings\\_openssl.pyd',
   'EXTENSION'),
  ('bcrypt._bcrypt',
   'C:\\Users\\Cody\\AppData\\Roaming\\Python\\Python38\\site-packages\\bcrypt\\_bcrypt.pyd',
   'EXTENSION'),
  ('nacl._sodium',
   'C:\\Users\\Cody\\AppData\\Roaming\\Python\\Python38\\site-packages\\nacl\\_sodium.cp38-win_amd64.pyd',
   'EXTENSION'),
  ('win32security',
   'C:\\Users\\Cody\\AppData\\Roaming\\Python\\Python38\\site-packages\\win32\\win32security.pyd',
   'EXTENSION'),
  ('_win32sysloader',
   'C:\\Users\\Cody\\AppData\\Roaming\\Python\\Python38\\site-packages\\win32\\_win32sysloader.pyd',
   'EXTENSION'),
  ('libssl-1_1.dll',
   'c:\\program files\\python38\\DLLs\\libssl-1_1.dll',
   'BINARY'),
  ('libcrypto-1_1.dll',
   'c:\\program files\\python38\\DLLs\\libcrypto-1_1.dll',
   'BINARY'),
  ('api-ms-win-crt-utility-l1-1-0.dll',
   'C:\\Program '
   'Files\\AdoptOpenJDK\\jdk-11.0.10.9-hotspot\\bin\\api-ms-win-crt-utility-l1-1-0.dll',
   'BINARY'),
  ('libffi-7.dll', 'c:\\program files\\python38\\DLLs\\libffi-7.dll', 'BINARY'),
  ('python3.dll', 'c:\\program files\\python38\\python3.dll', 'BINARY'),
  ('base_library.zip',
   'C:\\Users\\Cody\\Desktop\\FuzeBuildSelector\\testwithSSH\\build\\testingwithSSH\\base_library.zip',
   'DATA'),
  ('cryptography-3.4.7-py3.8.egg-info\\RECORD',
   'c:\\users\\cody\\appdata\\roaming\\python\\python38\\site-packages\\cryptography-3.4.7.dist-info\\RECORD',
   'DATA'),
  ('cryptography-3.4.7-py3.8.egg-info\\INSTALLER',
   'c:\\users\\cody\\appdata\\roaming\\python\\python38\\site-packages\\cryptography-3.4.7.dist-info\\INSTALLER',
   'DATA'),
  ('cryptography-3.4.7-py3.8.egg-info\\LICENSE',
   'c:\\users\\cody\\appdata\\roaming\\python\\python38\\site-packages\\cryptography-3.4.7.dist-info\\LICENSE',
   'DATA'),
  ('cryptography-3.4.7-py3.8.egg-info\\LICENSE.BSD',
   'c:\\users\\cody\\appdata\\roaming\\python\\python38\\site-packages\\cryptography-3.4.7.dist-info\\LICENSE.BSD',
   'DATA'),
  ('cryptography-3.4.7-py3.8.egg-info\\LICENSE.PSF',
   'c:\\users\\cody\\appdata\\roaming\\python\\python38\\site-packages\\cryptography-3.4.7.dist-info\\LICENSE.PSF',
   'DATA'),
  ('cryptography-3.4.7-py3.8.egg-info\\top_level.txt',
   'c:\\users\\cody\\appdata\\roaming\\python\\python38\\site-packages\\cryptography-3.4.7.dist-info\\top_level.txt',
   'DATA'),
  ('cryptography-3.4.7-py3.8.egg-info\\LICENSE.APACHE',
   'c:\\users\\cody\\appdata\\roaming\\python\\python38\\site-packages\\cryptography-3.4.7.dist-info\\LICENSE.APACHE',
   'DATA'),
  ('Include\\pyconfig.h',
   'c:\\program files\\python38\\Include\\pyconfig.h',
   'DATA'),
  ('cryptography-3.4.7-py3.8.egg-info\\METADATA',
   'c:\\users\\cody\\appdata\\roaming\\python\\python38\\site-packages\\cryptography-3.4.7.dist-info\\METADATA',
   'DATA'),
  ('cryptography-3.4.7-py3.8.egg-info\\WHEEL',
   'c:\\users\\cody\\appdata\\roaming\\python\\python38\\site-packages\\cryptography-3.4.7.dist-info\\WHEEL',
   'DATA'),
  ('testingwithSSH.exe.manifest',
   'C:\\Users\\Cody\\Desktop\\FuzeBuildSelector\\testwithSSH\\build\\testingwithSSH\\testingwithSSH.exe.manifest',
   'BINARY'),
  ('pyi-windows-manifest-filename testingwithSSH.exe.manifest', '', 'OPTION')],
 [],
 False,
 False,
 1617721443,
 [('run.exe',
   'C:\\Users\\Cody\\AppData\\Roaming\\Python\\Python38\\site-packages\\PyInstaller\\bootloader\\Windows-64bit\\run.exe',
   'EXECUTABLE')])
