(['C:\\Users\\Cody\\Desktop\\FuzeBuildSelectorGUI\\FuzeBuildSelector.py'],
 ['C:\\Users\\Cody\\Desktop\\FuzeBuildSelectorGUI',
  'C:\\Users\\Cody\\Desktop\\FuzeBuildSelectorGUI'],
 ['codecs'],
 ['C:\\Users\\Cody\\AppData\\Roaming\\Python\\Python38\\site-packages\\_pyinstaller_hooks_contrib\\hooks\\stdhooks',
  'C:\\Users\\Cody\\AppData\\Roaming\\Python\\Python38\\site-packages\\_pyinstaller_hooks_contrib\\hooks\\stdhooks\\__pycache__',
  'C:\\Users\\Cody\\AppData\\Roaming\\Python\\Python38\\site-packages\\_pyinstaller_hooks_contrib\\hooks\\rthooks',
  'C:\\Users\\Cody\\AppData\\Roaming\\Python\\Python38\\site-packages\\_pyinstaller_hooks_contrib\\hooks\\rthooks\\__pycache__',
  'C:\\Users\\Cody\\AppData\\Roaming\\Python\\Python38\\site-packages\\_pyinstaller_hooks_contrib\\hooks',
  'C:\\Users\\Cody\\AppData\\Roaming\\Python\\Python38\\site-packages\\pygame\\__pyinstaller'],
 [],
 [],
 False,
 False,
 False,
 '3.8.8 (tags/v3.8.8:024d805, Feb 19 2021, 13:18:16) [MSC v.1928 64 bit '
 '(AMD64)]',
 [('pyi_rth_multiprocessing',
   'C:\\Users\\Cody\\AppData\\Roaming\\Python\\Python38\\site-packages\\PyInstaller\\hooks\\rthooks\\pyi_rth_multiprocessing.py',
   'PYSOURCE'),
  ('pyi_rth_pyside2',
   'C:\\Users\\Cody\\AppData\\Roaming\\Python\\Python38\\site-packages\\PyInstaller\\hooks\\rthooks\\pyi_rth_pyside2.py',
   'PYSOURCE'),
  ('FuzeBuildSelector',
   'C:\\Users\\Cody\\Desktop\\FuzeBuildSelectorGUI\\FuzeBuildSelector.py',
   'PYSOURCE')],
 [('multiprocessing.popen_spawn_posix',
   'c:\\program files\\python38\\lib\\multiprocessing\\popen_spawn_posix.py',
   'PYMODULE'),
  ('multiprocessing.resource_tracker',
   'c:\\program files\\python38\\lib\\multiprocessing\\resource_tracker.py',
   'PYMODULE'),
  ('threading', 'c:\\program files\\python38\\lib\\threading.py', 'PYMODULE'),
  ('_threading_local',
   'c:\\program files\\python38\\lib\\_threading_local.py',
   'PYMODULE'),
  ('contextlib', 'c:\\program files\\python38\\lib\\contextlib.py', 'PYMODULE'),
  ('_strptime', 'c:\\program files\\python38\\lib\\_strptime.py', 'PYMODULE'),
  ('datetime', 'c:\\program files\\python38\\lib\\datetime.py', 'PYMODULE'),
  ('calendar', 'c:\\program files\\python38\\lib\\calendar.py', 'PYMODULE'),
  ('argparse', 'c:\\program files\\python38\\lib\\argparse.py', 'PYMODULE'),
  ('textwrap', 'c:\\program files\\python38\\lib\\textwrap.py', 'PYMODULE'),
  ('copy', 'c:\\program files\\python38\\lib\\copy.py', 'PYMODULE'),
  ('gettext', 'c:\\program files\\python38\\lib\\gettext.py', 'PYMODULE'),
  ('struct', 'c:\\program files\\python38\\lib\\struct.py', 'PYMODULE'),
  ('shutil', 'c:\\program files\\python38\\lib\\shutil.py', 'PYMODULE'),
  ('zipfile', 'c:\\program files\\python38\\lib\\zipfile.py', 'PYMODULE'),
  ('py_compile', 'c:\\program files\\python38\\lib\\py_compile.py', 'PYMODULE'),
  ('ntpath', 'c:\\program files\\python38\\lib\\ntpath.py', 'PYMODULE'),
  ('string', 'c:\\program files\\python38\\lib\\string.py', 'PYMODULE'),
  ('genericpath',
   'c:\\program files\\python38\\lib\\genericpath.py',
   'PYMODULE'),
  ('importlib.machinery',
   'c:\\program files\\python38\\lib\\importlib\\machinery.py',
   'PYMODULE'),
  ('importlib',
   'c:\\program files\\python38\\lib\\importlib\\__init__.py',
   'PYMODULE'),
  ('importlib.abc',
   'c:\\program files\\python38\\lib\\importlib\\abc.py',
   'PYMODULE'),
  ('importlib._bootstrap',
   'c:\\program files\\python38\\lib\\importlib\\_bootstrap.py',
   'PYMODULE'),
  ('importlib._bootstrap_external',
   'c:\\program files\\python38\\lib\\importlib\\_bootstrap_external.py',
   'PYMODULE'),
  ('importlib.metadata',
   'c:\\program files\\python38\\lib\\importlib\\metadata.py',
   'PYMODULE'),
  ('configparser',
   'c:\\program files\\python38\\lib\\configparser.py',
   'PYMODULE'),
  ('pathlib', 'c:\\program files\\python38\\lib\\pathlib.py', 'PYMODULE'),
  ('urllib.parse',
   'c:\\program files\\python38\\lib\\urllib\\parse.py',
   'PYMODULE'),
  ('urllib',
   'c:\\program files\\python38\\lib\\urllib\\__init__.py',
   'PYMODULE'),
  ('email', 'c:\\program files\\python38\\lib\\email\\__init__.py', 'PYMODULE'),
  ('email.parser',
   'c:\\program files\\python38\\lib\\email\\parser.py',
   'PYMODULE'),
  ('email._policybase',
   'c:\\program files\\python38\\lib\\email\\_policybase.py',
   'PYMODULE'),
  ('email.utils',
   'c:\\program files\\python38\\lib\\email\\utils.py',
   'PYMODULE'),
  ('email._parseaddr',
   'c:\\program files\\python38\\lib\\email\\_parseaddr.py',
   'PYMODULE'),
  ('socket', 'c:\\program files\\python38\\lib\\socket.py', 'PYMODULE'),
  ('selectors', 'c:\\program files\\python38\\lib\\selectors.py', 'PYMODULE'),
  ('random', 'c:\\program files\\python38\\lib\\random.py', 'PYMODULE'),
  ('hashlib', 'c:\\program files\\python38\\lib\\hashlib.py', 'PYMODULE'),
  ('logging',
   'c:\\program files\\python38\\lib\\logging\\__init__.py',
   'PYMODULE'),
  ('pickle', 'c:\\program files\\python38\\lib\\pickle.py', 'PYMODULE'),
  ('pprint', 'c:\\program files\\python38\\lib\\pprint.py', 'PYMODULE'),
  ('doctest', 'c:\\program files\\python38\\lib\\doctest.py', 'PYMODULE'),
  ('unittest',
   'c:\\program files\\python38\\lib\\unittest\\__init__.py',
   'PYMODULE'),
  ('unittest.signals',
   'c:\\program files\\python38\\lib\\unittest\\signals.py',
   'PYMODULE'),
  ('unittest.main',
   'c:\\program files\\python38\\lib\\unittest\\main.py',
   'PYMODULE'),
  ('unittest.runner',
   'c:\\program files\\python38\\lib\\unittest\\runner.py',
   'PYMODULE'),
  ('unittest.loader',
   'c:\\program files\\python38\\lib\\unittest\\loader.py',
   'PYMODULE'),
  ('unittest.suite',
   'c:\\program files\\python38\\lib\\unittest\\suite.py',
   'PYMODULE'),
  ('unittest.case',
   'c:\\program files\\python38\\lib\\unittest\\case.py',
   'PYMODULE'),
  ('unittest.async_case',
   'c:\\program files\\python38\\lib\\unittest\\async_case.py',
   'PYMODULE'),
  ('asyncio',
   'c:\\program files\\python38\\lib\\asyncio\\__init__.py',
   'PYMODULE'),
  ('asyncio.unix_events',
   'c:\\program files\\python38\\lib\\asyncio\\unix_events.py',
   'PYMODULE'),
  ('asyncio.log',
   'c:\\program files\\python38\\lib\\asyncio\\log.py',
   'PYMODULE'),
  ('asyncio.windows_events',
   'c:\\program files\\python38\\lib\\asyncio\\windows_events.py',
   'PYMODULE'),
  ('asyncio.windows_utils',
   'c:\\program files\\python38\\lib\\asyncio\\windows_utils.py',
   'PYMODULE'),
  ('tempfile', 'c:\\program files\\python38\\lib\\tempfile.py', 'PYMODULE'),
  ('asyncio.selector_events',
   'c:\\program files\\python38\\lib\\asyncio\\selector_events.py',
   'PYMODULE'),
  ('ssl', 'c:\\program files\\python38\\lib\\ssl.py', 'PYMODULE'),
  ('base64', 'c:\\program files\\python38\\lib\\base64.py', 'PYMODULE'),
  ('getopt', 'c:\\program files\\python38\\lib\\getopt.py', 'PYMODULE'),
  ('asyncio.proactor_events',
   'c:\\program files\\python38\\lib\\asyncio\\proactor_events.py',
   'PYMODULE'),
  ('asyncio.base_subprocess',
   'c:\\program files\\python38\\lib\\asyncio\\base_subprocess.py',
   'PYMODULE'),
  ('asyncio.subprocess',
   'c:\\program files\\python38\\lib\\asyncio\\subprocess.py',
   'PYMODULE'),
  ('asyncio.streams',
   'c:\\program files\\python38\\lib\\asyncio\\streams.py',
   'PYMODULE'),
  ('asyncio.queues',
   'c:\\program files\\python38\\lib\\asyncio\\queues.py',
   'PYMODULE'),
  ('asyncio.runners',
   'c:\\program files\\python38\\lib\\asyncio\\runners.py',
   'PYMODULE'),
  ('asyncio.events',
   'c:\\program files\\python38\\lib\\asyncio\\events.py',
   'PYMODULE'),
  ('contextvars',
   'c:\\program files\\python38\\lib\\contextvars.py',
   'PYMODULE'),
  ('asyncio.trsock',
   'c:\\program files\\python38\\lib\\asyncio\\trsock.py',
   'PYMODULE'),
  ('asyncio.staggered',
   'c:\\program files\\python38\\lib\\asyncio\\staggered.py',
   'PYMODULE'),
  ('typing', 'c:\\program files\\python38\\lib\\typing.py', 'PYMODULE'),
  ('asyncio.tasks',
   'c:\\program files\\python38\\lib\\asyncio\\tasks.py',
   'PYMODULE'),
  ('concurrent.futures',
   'c:\\program files\\python38\\lib\\concurrent\\futures\\__init__.py',
   'PYMODULE'),
  ('concurrent.futures.thread',
   'c:\\program files\\python38\\lib\\concurrent\\futures\\thread.py',
   'PYMODULE'),
  ('queue', 'c:\\program files\\python38\\lib\\queue.py', 'PYMODULE'),
  ('concurrent.futures.process',
   'c:\\program files\\python38\\lib\\concurrent\\futures\\process.py',
   'PYMODULE'),
  ('multiprocessing.queues',
   'c:\\program files\\python38\\lib\\multiprocessing\\queues.py',
   'PYMODULE'),
  ('multiprocessing.synchronize',
   'c:\\program files\\python38\\lib\\multiprocessing\\synchronize.py',
   'PYMODULE'),
  ('multiprocessing.heap',
   'c:\\program files\\python38\\lib\\multiprocessing\\heap.py',
   'PYMODULE'),
  ('multiprocessing.process',
   'c:\\program files\\python38\\lib\\multiprocessing\\process.py',
   'PYMODULE'),
  ('multiprocessing.connection',
   'c:\\program files\\python38\\lib\\multiprocessing\\connection.py',
   'PYMODULE'),
  ('multiprocessing.resource_sharer',
   'c:\\program files\\python38\\lib\\multiprocessing\\resource_sharer.py',
   'PYMODULE'),
  ('xmlrpc.client',
   'c:\\program files\\python38\\lib\\xmlrpc\\client.py',
   'PYMODULE'),
  ('xmlrpc',
   'c:\\program files\\python38\\lib\\xmlrpc\\__init__.py',
   'PYMODULE'),
  ('gzip', 'c:\\program files\\python38\\lib\\gzip.py', 'PYMODULE'),
  ('_compression',
   'c:\\program files\\python38\\lib\\_compression.py',
   'PYMODULE'),
  ('xml.parsers.expat',
   'c:\\program files\\python38\\lib\\xml\\parsers\\expat.py',
   'PYMODULE'),
  ('xml.parsers',
   'c:\\program files\\python38\\lib\\xml\\parsers\\__init__.py',
   'PYMODULE'),
  ('xml', 'c:\\program files\\python38\\lib\\xml\\__init__.py', 'PYMODULE'),
  ('xml.sax.expatreader',
   'c:\\program files\\python38\\lib\\xml\\sax\\expatreader.py',
   'PYMODULE'),
  ('xml.sax.saxutils',
   'c:\\program files\\python38\\lib\\xml\\sax\\saxutils.py',
   'PYMODULE'),
  ('urllib.request',
   'c:\\program files\\python38\\lib\\urllib\\request.py',
   'PYMODULE'),
  ('getpass', 'c:\\program files\\python38\\lib\\getpass.py', 'PYMODULE'),
  ('nturl2path', 'c:\\program files\\python38\\lib\\nturl2path.py', 'PYMODULE'),
  ('ftplib', 'c:\\program files\\python38\\lib\\ftplib.py', 'PYMODULE'),
  ('netrc', 'c:\\program files\\python38\\lib\\netrc.py', 'PYMODULE'),
  ('shlex', 'c:\\program files\\python38\\lib\\shlex.py', 'PYMODULE'),
  ('mimetypes', 'c:\\program files\\python38\\lib\\mimetypes.py', 'PYMODULE'),
  ('http.cookiejar',
   'c:\\program files\\python38\\lib\\http\\cookiejar.py',
   'PYMODULE'),
  ('http', 'c:\\program files\\python38\\lib\\http\\__init__.py', 'PYMODULE'),
  ('urllib.response',
   'c:\\program files\\python38\\lib\\urllib\\response.py',
   'PYMODULE'),
  ('urllib.error',
   'c:\\program files\\python38\\lib\\urllib\\error.py',
   'PYMODULE'),
  ('xml.sax',
   'c:\\program files\\python38\\lib\\xml\\sax\\__init__.py',
   'PYMODULE'),
  ('xml.sax.handler',
   'c:\\program files\\python38\\lib\\xml\\sax\\handler.py',
   'PYMODULE'),
  ('xml.sax._exceptions',
   'c:\\program files\\python38\\lib\\xml\\sax\\_exceptions.py',
   'PYMODULE'),
  ('xml.sax.xmlreader',
   'c:\\program files\\python38\\lib\\xml\\sax\\xmlreader.py',
   'PYMODULE'),
  ('http.client',
   'c:\\program files\\python38\\lib\\http\\client.py',
   'PYMODULE'),
  ('email.message',
   'c:\\program files\\python38\\lib\\email\\message.py',
   'PYMODULE'),
  ('email.policy',
   'c:\\program files\\python38\\lib\\email\\policy.py',
   'PYMODULE'),
  ('email.contentmanager',
   'c:\\program files\\python38\\lib\\email\\contentmanager.py',
   'PYMODULE'),
  ('email.quoprimime',
   'c:\\program files\\python38\\lib\\email\\quoprimime.py',
   'PYMODULE'),
  ('email.headerregistry',
   'c:\\program files\\python38\\lib\\email\\headerregistry.py',
   'PYMODULE'),
  ('email.iterators',
   'c:\\program files\\python38\\lib\\email\\iterators.py',
   'PYMODULE'),
  ('email.generator',
   'c:\\program files\\python38\\lib\\email\\generator.py',
   'PYMODULE'),
  ('email._encoded_words',
   'c:\\program files\\python38\\lib\\email\\_encoded_words.py',
   'PYMODULE'),
  ('quopri', 'c:\\program files\\python38\\lib\\quopri.py', 'PYMODULE'),
  ('uu', 'c:\\program files\\python38\\lib\\uu.py', 'PYMODULE'),
  ('optparse', 'c:\\program files\\python38\\lib\\optparse.py', 'PYMODULE'),
  ('decimal', 'c:\\program files\\python38\\lib\\decimal.py', 'PYMODULE'),
  ('_pydecimal', 'c:\\program files\\python38\\lib\\_pydecimal.py', 'PYMODULE'),
  ('numbers', 'c:\\program files\\python38\\lib\\numbers.py', 'PYMODULE'),
  ('hmac', 'c:\\program files\\python38\\lib\\hmac.py', 'PYMODULE'),
  ('concurrent.futures._base',
   'c:\\program files\\python38\\lib\\concurrent\\futures\\_base.py',
   'PYMODULE'),
  ('concurrent',
   'c:\\program files\\python38\\lib\\concurrent\\__init__.py',
   'PYMODULE'),
  ('asyncio.base_tasks',
   'c:\\program files\\python38\\lib\\asyncio\\base_tasks.py',
   'PYMODULE'),
  ('asyncio.locks',
   'c:\\program files\\python38\\lib\\asyncio\\locks.py',
   'PYMODULE'),
  ('asyncio.sslproto',
   'c:\\program files\\python38\\lib\\asyncio\\sslproto.py',
   'PYMODULE'),
  ('asyncio.transports',
   'c:\\program files\\python38\\lib\\asyncio\\transports.py',
   'PYMODULE'),
  ('asyncio.base_events',
   'c:\\program files\\python38\\lib\\asyncio\\base_events.py',
   'PYMODULE'),
  ('asyncio.protocols',
   'c:\\program files\\python38\\lib\\asyncio\\protocols.py',
   'PYMODULE'),
  ('asyncio.futures',
   'c:\\program files\\python38\\lib\\asyncio\\futures.py',
   'PYMODULE'),
  ('asyncio.coroutines',
   'c:\\program files\\python38\\lib\\asyncio\\coroutines.py',
   'PYMODULE'),
  ('asyncio.base_futures',
   'c:\\program files\\python38\\lib\\asyncio\\base_futures.py',
   'PYMODULE'),
  ('asyncio.exceptions',
   'c:\\program files\\python38\\lib\\asyncio\\exceptions.py',
   'PYMODULE'),
  ('asyncio.format_helpers',
   'c:\\program files\\python38\\lib\\asyncio\\format_helpers.py',
   'PYMODULE'),
  ('asyncio.constants',
   'c:\\program files\\python38\\lib\\asyncio\\constants.py',
   'PYMODULE'),
  ('unittest.result',
   'c:\\program files\\python38\\lib\\unittest\\result.py',
   'PYMODULE'),
  ('unittest.util',
   'c:\\program files\\python38\\lib\\unittest\\util.py',
   'PYMODULE'),
  ('pdb', 'c:\\program files\\python38\\lib\\pdb.py', 'PYMODULE'),
  ('pydoc', 'c:\\program files\\python38\\lib\\pydoc.py', 'PYMODULE'),
  ('webbrowser', 'c:\\program files\\python38\\lib\\webbrowser.py', 'PYMODULE'),
  ('http.server',
   'c:\\program files\\python38\\lib\\http\\server.py',
   'PYMODULE'),
  ('socketserver',
   'c:\\program files\\python38\\lib\\socketserver.py',
   'PYMODULE'),
  ('html', 'c:\\program files\\python38\\lib\\html\\__init__.py', 'PYMODULE'),
  ('html.entities',
   'c:\\program files\\python38\\lib\\html\\entities.py',
   'PYMODULE'),
  ('pydoc_data.topics',
   'c:\\program files\\python38\\lib\\pydoc_data\\topics.py',
   'PYMODULE'),
  ('pydoc_data',
   'c:\\program files\\python38\\lib\\pydoc_data\\__init__.py',
   'PYMODULE'),
  ('tty', 'c:\\program files\\python38\\lib\\tty.py', 'PYMODULE'),
  ('sysconfig', 'c:\\program files\\python38\\lib\\sysconfig.py', 'PYMODULE'),
  ('_osx_support',
   'c:\\program files\\python38\\lib\\_osx_support.py',
   'PYMODULE'),
  ('distutils.log',
   'c:\\program files\\python38\\lib\\distutils\\log.py',
   'PYMODULE'),
  ('distutils',
   'c:\\program files\\python38\\lib\\distutils\\__init__.py',
   'PYMODULE'),
  ('distutils.ccompiler',
   'c:\\program files\\python38\\lib\\distutils\\ccompiler.py',
   'PYMODULE'),
  ('distutils.fancy_getopt',
   'c:\\program files\\python38\\lib\\distutils\\fancy_getopt.py',
   'PYMODULE'),
  ('distutils.debug',
   'c:\\program files\\python38\\lib\\distutils\\debug.py',
   'PYMODULE'),
  ('distutils.util',
   'c:\\program files\\python38\\lib\\distutils\\util.py',
   'PYMODULE'),
  ('distutils.filelist',
   'c:\\program files\\python38\\lib\\distutils\\filelist.py',
   'PYMODULE'),
  ('distutils.dep_util',
   'c:\\program files\\python38\\lib\\distutils\\dep_util.py',
   'PYMODULE'),
  ('distutils.dir_util',
   'c:\\program files\\python38\\lib\\distutils\\dir_util.py',
   'PYMODULE'),
  ('distutils.file_util',
   'c:\\program files\\python38\\lib\\distutils\\file_util.py',
   'PYMODULE'),
  ('distutils.spawn',
   'c:\\program files\\python38\\lib\\distutils\\spawn.py',
   'PYMODULE'),
  ('distutils.errors',
   'c:\\program files\\python38\\lib\\distutils\\errors.py',
   'PYMODULE'),
  ('distutils.sysconfig',
   'c:\\program files\\python38\\lib\\distutils\\sysconfig.py',
   'PYMODULE'),
  ('distutils.text_file',
   'c:\\program files\\python38\\lib\\distutils\\text_file.py',
   'PYMODULE'),
  ('platform', 'c:\\program files\\python38\\lib\\platform.py', 'PYMODULE'),
  ('plistlib', 'c:\\program files\\python38\\lib\\plistlib.py', 'PYMODULE'),
  ('pkgutil', 'c:\\program files\\python38\\lib\\pkgutil.py', 'PYMODULE'),
  ('zipimport', 'c:\\program files\\python38\\lib\\zipimport.py', 'PYMODULE'),
  ('runpy', 'c:\\program files\\python38\\lib\\runpy.py', 'PYMODULE'),
  ('glob', 'c:\\program files\\python38\\lib\\glob.py', 'PYMODULE'),
  ('code', 'c:\\program files\\python38\\lib\\code.py', 'PYMODULE'),
  ('codeop', 'c:\\program files\\python38\\lib\\codeop.py', 'PYMODULE'),
  ('dis', 'c:\\program files\\python38\\lib\\dis.py', 'PYMODULE'),
  ('opcode', 'c:\\program files\\python38\\lib\\opcode.py', 'PYMODULE'),
  ('bdb', 'c:\\program files\\python38\\lib\\bdb.py', 'PYMODULE'),
  ('cmd', 'c:\\program files\\python38\\lib\\cmd.py', 'PYMODULE'),
  ('inspect', 'c:\\program files\\python38\\lib\\inspect.py', 'PYMODULE'),
  ('ast', 'c:\\program files\\python38\\lib\\ast.py', 'PYMODULE'),
  ('token', 'c:\\program files\\python38\\lib\\token.py', 'PYMODULE'),
  ('difflib', 'c:\\program files\\python38\\lib\\difflib.py', 'PYMODULE'),
  ('__future__', 'c:\\program files\\python38\\lib\\__future__.py', 'PYMODULE'),
  ('_compat_pickle',
   'c:\\program files\\python38\\lib\\_compat_pickle.py',
   'PYMODULE'),
  ('bisect', 'c:\\program files\\python38\\lib\\bisect.py', 'PYMODULE'),
  ('email.feedparser',
   'c:\\program files\\python38\\lib\\email\\feedparser.py',
   'PYMODULE'),
  ('email._header_value_parser',
   'c:\\program files\\python38\\lib\\email\\_header_value_parser.py',
   'PYMODULE'),
  ('email.header',
   'c:\\program files\\python38\\lib\\email\\header.py',
   'PYMODULE'),
  ('email.base64mime',
   'c:\\program files\\python38\\lib\\email\\base64mime.py',
   'PYMODULE'),
  ('email.charset',
   'c:\\program files\\python38\\lib\\email\\charset.py',
   'PYMODULE'),
  ('email.encoders',
   'c:\\program files\\python38\\lib\\email\\encoders.py',
   'PYMODULE'),
  ('email.errors',
   'c:\\program files\\python38\\lib\\email\\errors.py',
   'PYMODULE'),
  ('csv', 'c:\\program files\\python38\\lib\\csv.py', 'PYMODULE'),
  ('tokenize', 'c:\\program files\\python38\\lib\\tokenize.py', 'PYMODULE'),
  ('posixpath', 'c:\\program files\\python38\\lib\\posixpath.py', 'PYMODULE'),
  ('importlib.util',
   'c:\\program files\\python38\\lib\\importlib\\util.py',
   'PYMODULE'),
  ('tarfile', 'c:\\program files\\python38\\lib\\tarfile.py', 'PYMODULE'),
  ('lzma', 'c:\\program files\\python38\\lib\\lzma.py', 'PYMODULE'),
  ('bz2', 'c:\\program files\\python38\\lib\\bz2.py', 'PYMODULE'),
  ('fnmatch', 'c:\\program files\\python38\\lib\\fnmatch.py', 'PYMODULE'),
  ('stat', 'c:\\program files\\python38\\lib\\stat.py', 'PYMODULE'),
  ('signal', 'c:\\program files\\python38\\lib\\signal.py', 'PYMODULE'),
  ('multiprocessing.util',
   'c:\\program files\\python38\\lib\\multiprocessing\\util.py',
   'PYMODULE'),
  ('multiprocessing.forkserver',
   'c:\\program files\\python38\\lib\\multiprocessing\\forkserver.py',
   'PYMODULE'),
  ('multiprocessing.context',
   'c:\\program files\\python38\\lib\\multiprocessing\\context.py',
   'PYMODULE'),
  ('multiprocessing.popen_forkserver',
   'c:\\program files\\python38\\lib\\multiprocessing\\popen_forkserver.py',
   'PYMODULE'),
  ('multiprocessing.sharedctypes',
   'c:\\program files\\python38\\lib\\multiprocessing\\sharedctypes.py',
   'PYMODULE'),
  ('multiprocessing.pool',
   'c:\\program files\\python38\\lib\\multiprocessing\\pool.py',
   'PYMODULE'),
  ('multiprocessing.dummy',
   'c:\\program files\\python38\\lib\\multiprocessing\\dummy\\__init__.py',
   'PYMODULE'),
  ('multiprocessing.dummy.connection',
   'c:\\program files\\python38\\lib\\multiprocessing\\dummy\\connection.py',
   'PYMODULE'),
  ('multiprocessing.managers',
   'c:\\program files\\python38\\lib\\multiprocessing\\managers.py',
   'PYMODULE'),
  ('multiprocessing.shared_memory',
   'c:\\program files\\python38\\lib\\multiprocessing\\shared_memory.py',
   'PYMODULE'),
  ('secrets', 'c:\\program files\\python38\\lib\\secrets.py', 'PYMODULE'),
  ('multiprocessing.reduction',
   'c:\\program files\\python38\\lib\\multiprocessing\\reduction.py',
   'PYMODULE'),
  ('multiprocessing.popen_fork',
   'c:\\program files\\python38\\lib\\multiprocessing\\popen_fork.py',
   'PYMODULE'),
  ('multiprocessing.popen_spawn_win32',
   'c:\\program files\\python38\\lib\\multiprocessing\\popen_spawn_win32.py',
   'PYMODULE'),
  ('subprocess', 'c:\\program files\\python38\\lib\\subprocess.py', 'PYMODULE'),
  ('multiprocessing.spawn',
   'c:\\program files\\python38\\lib\\multiprocessing\\spawn.py',
   'PYMODULE'),
  ('multiprocessing',
   'c:\\program files\\python38\\lib\\multiprocessing\\__init__.py',
   'PYMODULE'),
  ('tracemalloc',
   'c:\\program files\\python38\\lib\\tracemalloc.py',
   'PYMODULE'),
  ('stringprep', 'c:\\program files\\python38\\lib\\stringprep.py', 'PYMODULE'),
  ('_py_abc', 'c:\\program files\\python38\\lib\\_py_abc.py', 'PYMODULE'),
  ('PySide2',
   'C:\\Users\\Cody\\AppData\\Roaming\\Python\\Python38\\site-packages\\PySide2\\__init__.py',
   'PYMODULE'),
  ('shiboken2',
   'C:\\Users\\Cody\\AppData\\Roaming\\Python\\Python38\\site-packages\\shiboken2\\__init__.py',
   'PYMODULE'),
  ('os', 'c:\\program files\\python38\\lib\\os.py', 'PYMODULE'),
  ('ctypes',
   'c:\\program files\\python38\\lib\\ctypes\\__init__.py',
   'PYMODULE'),
  ('ctypes._endian',
   'c:\\program files\\python38\\lib\\ctypes\\_endian.py',
   'PYMODULE')],
 [('api-ms-win-crt-runtime-l1-1-0.dll',
   'C:\\Program '
   'Files\\AdoptOpenJDK\\jdk-11.0.10.9-hotspot\\bin\\api-ms-win-crt-runtime-l1-1-0.dll',
   'BINARY'),
  ('api-ms-win-crt-locale-l1-1-0.dll',
   'C:\\Program '
   'Files\\AdoptOpenJDK\\jdk-11.0.10.9-hotspot\\bin\\api-ms-win-crt-locale-l1-1-0.dll',
   'BINARY'),
  ('python38.dll', 'c:\\program files\\python38\\python38.dll', 'BINARY'),
  ('api-ms-win-crt-math-l1-1-0.dll',
   'C:\\Program '
   'Files\\AdoptOpenJDK\\jdk-11.0.10.9-hotspot\\bin\\api-ms-win-crt-math-l1-1-0.dll',
   'BINARY'),
  ('api-ms-win-crt-stdio-l1-1-0.dll',
   'C:\\Program '
   'Files\\AdoptOpenJDK\\jdk-11.0.10.9-hotspot\\bin\\api-ms-win-crt-stdio-l1-1-0.dll',
   'BINARY'),
  ('VCRUNTIME140.dll',
   'c:\\program files\\python38\\VCRUNTIME140.dll',
   'BINARY'),
  ('api-ms-win-crt-heap-l1-1-0.dll',
   'C:\\Program '
   'Files\\AdoptOpenJDK\\jdk-11.0.10.9-hotspot\\bin\\api-ms-win-crt-heap-l1-1-0.dll',
   'BINARY'),
  ('ucrtbase.dll',
   'C:\\Program Files\\AdoptOpenJDK\\jdk-11.0.10.9-hotspot\\bin\\ucrtbase.dll',
   'BINARY'),
  ('api-ms-win-crt-environment-l1-1-0.dll',
   'C:\\Program '
   'Files\\AdoptOpenJDK\\jdk-11.0.10.9-hotspot\\bin\\api-ms-win-crt-environment-l1-1-0.dll',
   'BINARY'),
  ('api-ms-win-crt-process-l1-1-0.dll',
   'C:\\Program '
   'Files\\AdoptOpenJDK\\jdk-11.0.10.9-hotspot\\bin\\api-ms-win-crt-process-l1-1-0.dll',
   'BINARY'),
  ('api-ms-win-crt-time-l1-1-0.dll',
   'C:\\Program '
   'Files\\AdoptOpenJDK\\jdk-11.0.10.9-hotspot\\bin\\api-ms-win-crt-time-l1-1-0.dll',
   'BINARY'),
  ('api-ms-win-crt-filesystem-l1-1-0.dll',
   'C:\\Program '
   'Files\\AdoptOpenJDK\\jdk-11.0.10.9-hotspot\\bin\\api-ms-win-crt-filesystem-l1-1-0.dll',
   'BINARY'),
  ('api-ms-win-crt-conio-l1-1-0.dll',
   'C:\\Program '
   'Files\\AdoptOpenJDK\\jdk-11.0.10.9-hotspot\\bin\\api-ms-win-crt-conio-l1-1-0.dll',
   'BINARY'),
  ('api-ms-win-crt-convert-l1-1-0.dll',
   'C:\\Program '
   'Files\\AdoptOpenJDK\\jdk-11.0.10.9-hotspot\\bin\\api-ms-win-crt-convert-l1-1-0.dll',
   'BINARY'),
  ('api-ms-win-crt-string-l1-1-0.dll',
   'C:\\Program '
   'Files\\AdoptOpenJDK\\jdk-11.0.10.9-hotspot\\bin\\api-ms-win-crt-string-l1-1-0.dll',
   'BINARY'),
  ('api-ms-win-core-rtlsupport-l1-1-0.dll',
   'C:\\Program '
   'Files\\AdoptOpenJDK\\jdk-11.0.10.9-hotspot\\bin\\api-ms-win-core-rtlsupport-l1-1-0.dll',
   'BINARY'),
  ('api-ms-win-core-console-l1-1-0.dll',
   'C:\\Program '
   'Files\\AdoptOpenJDK\\jdk-11.0.10.9-hotspot\\bin\\api-ms-win-core-console-l1-1-0.dll',
   'BINARY'),
  ('api-ms-win-core-synch-l1-2-0.dll',
   'C:\\Program '
   'Files\\AdoptOpenJDK\\jdk-11.0.10.9-hotspot\\bin\\api-ms-win-core-synch-l1-2-0.dll',
   'BINARY'),
  ('api-ms-win-core-namedpipe-l1-1-0.dll',
   'C:\\Program '
   'Files\\AdoptOpenJDK\\jdk-11.0.10.9-hotspot\\bin\\api-ms-win-core-namedpipe-l1-1-0.dll',
   'BINARY'),
  ('api-ms-win-core-handle-l1-1-0.dll',
   'C:\\Program '
   'Files\\AdoptOpenJDK\\jdk-11.0.10.9-hotspot\\bin\\api-ms-win-core-handle-l1-1-0.dll',
   'BINARY'),
  ('api-ms-win-core-file-l2-1-0.dll',
   'C:\\Program '
   'Files\\AdoptOpenJDK\\jdk-11.0.10.9-hotspot\\bin\\api-ms-win-core-file-l2-1-0.dll',
   'BINARY'),
  ('api-ms-win-core-debug-l1-1-0.dll',
   'C:\\Program '
   'Files\\AdoptOpenJDK\\jdk-11.0.10.9-hotspot\\bin\\api-ms-win-core-debug-l1-1-0.dll',
   'BINARY'),
  ('api-ms-win-core-processthreads-l1-1-0.dll',
   'C:\\Program '
   'Files\\AdoptOpenJDK\\jdk-11.0.10.9-hotspot\\bin\\api-ms-win-core-processthreads-l1-1-0.dll',
   'BINARY'),
  ('api-ms-win-core-string-l1-1-0.dll',
   'C:\\Program '
   'Files\\AdoptOpenJDK\\jdk-11.0.10.9-hotspot\\bin\\api-ms-win-core-string-l1-1-0.dll',
   'BINARY'),
  ('api-ms-win-core-file-l1-1-0.dll',
   'C:\\Program '
   'Files\\AdoptOpenJDK\\jdk-11.0.10.9-hotspot\\bin\\api-ms-win-core-file-l1-1-0.dll',
   'BINARY'),
  ('api-ms-win-core-datetime-l1-1-0.dll',
   'C:\\Program '
   'Files\\AdoptOpenJDK\\jdk-11.0.10.9-hotspot\\bin\\api-ms-win-core-datetime-l1-1-0.dll',
   'BINARY'),
  ('api-ms-win-core-interlocked-l1-1-0.dll',
   'C:\\Program '
   'Files\\AdoptOpenJDK\\jdk-11.0.10.9-hotspot\\bin\\api-ms-win-core-interlocked-l1-1-0.dll',
   'BINARY'),
  ('api-ms-win-core-file-l1-2-0.dll',
   'C:\\Program '
   'Files\\AdoptOpenJDK\\jdk-11.0.10.9-hotspot\\bin\\api-ms-win-core-file-l1-2-0.dll',
   'BINARY'),
  ('api-ms-win-core-errorhandling-l1-1-0.dll',
   'C:\\Program '
   'Files\\AdoptOpenJDK\\jdk-11.0.10.9-hotspot\\bin\\api-ms-win-core-errorhandling-l1-1-0.dll',
   'BINARY'),
  ('api-ms-win-core-processthreads-l1-1-1.dll',
   'C:\\Program '
   'Files\\AdoptOpenJDK\\jdk-11.0.10.9-hotspot\\bin\\api-ms-win-core-processthreads-l1-1-1.dll',
   'BINARY'),
  ('api-ms-win-core-sysinfo-l1-1-0.dll',
   'C:\\Program '
   'Files\\AdoptOpenJDK\\jdk-11.0.10.9-hotspot\\bin\\api-ms-win-core-sysinfo-l1-1-0.dll',
   'BINARY'),
  ('api-ms-win-core-heap-l1-1-0.dll',
   'C:\\Program '
   'Files\\AdoptOpenJDK\\jdk-11.0.10.9-hotspot\\bin\\api-ms-win-core-heap-l1-1-0.dll',
   'BINARY'),
  ('api-ms-win-core-profile-l1-1-0.dll',
   'C:\\Program '
   'Files\\AdoptOpenJDK\\jdk-11.0.10.9-hotspot\\bin\\api-ms-win-core-profile-l1-1-0.dll',
   'BINARY'),
  ('api-ms-win-core-processenvironment-l1-1-0.dll',
   'C:\\Program '
   'Files\\AdoptOpenJDK\\jdk-11.0.10.9-hotspot\\bin\\api-ms-win-core-processenvironment-l1-1-0.dll',
   'BINARY'),
  ('api-ms-win-core-memory-l1-1-0.dll',
   'C:\\Program '
   'Files\\AdoptOpenJDK\\jdk-11.0.10.9-hotspot\\bin\\api-ms-win-core-memory-l1-1-0.dll',
   'BINARY'),
  ('api-ms-win-core-util-l1-1-0.dll',
   'C:\\Program '
   'Files\\AdoptOpenJDK\\jdk-11.0.10.9-hotspot\\bin\\api-ms-win-core-util-l1-1-0.dll',
   'BINARY'),
  ('api-ms-win-core-libraryloader-l1-1-0.dll',
   'C:\\Program '
   'Files\\AdoptOpenJDK\\jdk-11.0.10.9-hotspot\\bin\\api-ms-win-core-libraryloader-l1-1-0.dll',
   'BINARY'),
  ('api-ms-win-core-timezone-l1-1-0.dll',
   'C:\\Program '
   'Files\\AdoptOpenJDK\\jdk-11.0.10.9-hotspot\\bin\\api-ms-win-core-timezone-l1-1-0.dll',
   'BINARY'),
  ('api-ms-win-core-localization-l1-2-0.dll',
   'C:\\Program '
   'Files\\AdoptOpenJDK\\jdk-11.0.10.9-hotspot\\bin\\api-ms-win-core-localization-l1-2-0.dll',
   'BINARY'),
  ('api-ms-win-core-synch-l1-1-0.dll',
   'C:\\Program '
   'Files\\AdoptOpenJDK\\jdk-11.0.10.9-hotspot\\bin\\api-ms-win-core-synch-l1-1-0.dll',
   'BINARY'),
  ('PySide2\\plugins\\imageformats\\qgif.dll',
   'C:\\Users\\Cody\\AppData\\Roaming\\Python\\Python38\\site-packages\\PySide2\\plugins\\imageformats\\qgif.dll',
   'BINARY'),
  ('PySide2\\plugins\\imageformats\\qicns.dll',
   'C:\\Users\\Cody\\AppData\\Roaming\\Python\\Python38\\site-packages\\PySide2\\plugins\\imageformats\\qicns.dll',
   'BINARY'),
  ('PySide2\\plugins\\imageformats\\qwbmp.dll',
   'C:\\Users\\Cody\\AppData\\Roaming\\Python\\Python38\\site-packages\\PySide2\\plugins\\imageformats\\qwbmp.dll',
   'BINARY'),
  ('libGLESv2.dll',
   'C:\\Users\\Cody\\AppData\\Roaming\\Python\\Python38\\site-packages\\PySide2\\libGLESv2.dll',
   'BINARY'),
  ('PySide2\\plugins\\styles\\qwindowsvistastyle.dll',
   'C:\\Users\\Cody\\AppData\\Roaming\\Python\\Python38\\site-packages\\PySide2\\plugins\\styles\\qwindowsvistastyle.dll',
   'BINARY'),
  ('PySide2\\plugins\\imageformats\\qtga.dll',
   'C:\\Users\\Cody\\AppData\\Roaming\\Python\\Python38\\site-packages\\PySide2\\plugins\\imageformats\\qtga.dll',
   'BINARY'),
  ('opengl32sw.dll',
   'C:\\Users\\Cody\\AppData\\Roaming\\Python\\Python38\\site-packages\\PySide2\\opengl32sw.dll',
   'BINARY'),
  ('PySide2\\plugins\\imageformats\\qwebp.dll',
   'C:\\Users\\Cody\\AppData\\Roaming\\Python\\Python38\\site-packages\\PySide2\\plugins\\imageformats\\qwebp.dll',
   'BINARY'),
  ('PySide2\\plugins\\imageformats\\qjpeg.dll',
   'C:\\Users\\Cody\\AppData\\Roaming\\Python\\Python38\\site-packages\\PySide2\\plugins\\imageformats\\qjpeg.dll',
   'BINARY'),
  ('PySide2\\plugins\\platformthemes\\qxdgdesktopportal.dll',
   'C:\\Users\\Cody\\AppData\\Roaming\\Python\\Python38\\site-packages\\PySide2\\plugins\\platformthemes\\qxdgdesktopportal.dll',
   'BINARY'),
  ('PySide2\\plugins\\iconengines\\qsvgicon.dll',
   'C:\\Users\\Cody\\AppData\\Roaming\\Python\\Python38\\site-packages\\PySide2\\plugins\\iconengines\\qsvgicon.dll',
   'BINARY'),
  ('libEGL.dll',
   'C:\\Users\\Cody\\AppData\\Roaming\\Python\\Python38\\site-packages\\PySide2\\libEGL.dll',
   'BINARY'),
  ('d3dcompiler_47.dll',
   'C:\\Users\\Cody\\AppData\\Roaming\\Python\\Python38\\site-packages\\PySide2\\d3dcompiler_47.dll',
   'BINARY'),
  ('PySide2\\plugins\\imageformats\\qico.dll',
   'C:\\Users\\Cody\\AppData\\Roaming\\Python\\Python38\\site-packages\\PySide2\\plugins\\imageformats\\qico.dll',
   'BINARY'),
  ('PySide2\\plugins\\imageformats\\qpdf.dll',
   'C:\\Users\\Cody\\AppData\\Roaming\\Python\\Python38\\site-packages\\PySide2\\plugins\\imageformats\\qpdf.dll',
   'BINARY'),
  ('PySide2\\plugins\\platforms\\qwindows.dll',
   'C:\\Users\\Cody\\AppData\\Roaming\\Python\\Python38\\site-packages\\PySide2\\plugins\\platforms\\qwindows.dll',
   'BINARY'),
  ('PySide2\\plugins\\platforminputcontexts\\qtvirtualkeyboardplugin.dll',
   'C:\\Users\\Cody\\AppData\\Roaming\\Python\\Python38\\site-packages\\PySide2\\plugins\\platforminputcontexts\\qtvirtualkeyboardplugin.dll',
   'BINARY'),
  ('PySide2\\plugins\\imageformats\\qsvg.dll',
   'C:\\Users\\Cody\\AppData\\Roaming\\Python\\Python38\\site-packages\\PySide2\\plugins\\imageformats\\qsvg.dll',
   'BINARY'),
  ('PySide2\\plugins\\platforms\\qoffscreen.dll',
   'C:\\Users\\Cody\\AppData\\Roaming\\Python\\Python38\\site-packages\\PySide2\\plugins\\platforms\\qoffscreen.dll',
   'BINARY'),
  ('PySide2\\plugins\\imageformats\\qtiff.dll',
   'C:\\Users\\Cody\\AppData\\Roaming\\Python\\Python38\\site-packages\\PySide2\\plugins\\imageformats\\qtiff.dll',
   'BINARY'),
  ('PySide2\\plugins\\platforms\\qminimal.dll',
   'C:\\Users\\Cody\\AppData\\Roaming\\Python\\Python38\\site-packages\\PySide2\\plugins\\platforms\\qminimal.dll',
   'BINARY'),
  ('PySide2\\plugins\\platforms\\qwebgl.dll',
   'C:\\Users\\Cody\\AppData\\Roaming\\Python\\Python38\\site-packages\\PySide2\\plugins\\platforms\\qwebgl.dll',
   'BINARY'),
  ('_multiprocessing',
   'c:\\program files\\python38\\DLLs\\_multiprocessing.pyd',
   'EXTENSION'),
  ('unicodedata',
   'c:\\program files\\python38\\DLLs\\unicodedata.pyd',
   'EXTENSION'),
  ('select', 'c:\\program files\\python38\\DLLs\\select.pyd', 'EXTENSION'),
  ('_socket', 'c:\\program files\\python38\\DLLs\\_socket.pyd', 'EXTENSION'),
  ('_overlapped',
   'c:\\program files\\python38\\DLLs\\_overlapped.pyd',
   'EXTENSION'),
  ('_ssl', 'c:\\program files\\python38\\DLLs\\_ssl.pyd', 'EXTENSION'),
  ('_asyncio', 'c:\\program files\\python38\\DLLs\\_asyncio.pyd', 'EXTENSION'),
  ('_queue', 'c:\\program files\\python38\\DLLs\\_queue.pyd', 'EXTENSION'),
  ('pyexpat', 'c:\\program files\\python38\\DLLs\\pyexpat.pyd', 'EXTENSION'),
  ('_decimal', 'c:\\program files\\python38\\DLLs\\_decimal.pyd', 'EXTENSION'),
  ('_hashlib', 'c:\\program files\\python38\\DLLs\\_hashlib.pyd', 'EXTENSION'),
  ('_lzma', 'c:\\program files\\python38\\DLLs\\_lzma.pyd', 'EXTENSION'),
  ('_bz2', 'c:\\program files\\python38\\DLLs\\_bz2.pyd', 'EXTENSION'),
  ('PySide2.QtWidgets',
   'C:\\Users\\Cody\\AppData\\Roaming\\Python\\Python38\\site-packages\\PySide2\\QtWidgets.pyd',
   'EXTENSION'),
  ('PySide2.QtNetwork',
   'C:\\Users\\Cody\\AppData\\Roaming\\Python\\Python38\\site-packages\\PySide2\\QtNetwork.pyd',
   'EXTENSION'),
  ('shiboken2.shiboken2',
   'C:\\Users\\Cody\\AppData\\Roaming\\Python\\Python38\\site-packages\\shiboken2\\shiboken2.pyd',
   'EXTENSION'),
  ('PySide2.QtGui',
   'C:\\Users\\Cody\\AppData\\Roaming\\Python\\Python38\\site-packages\\PySide2\\QtGui.pyd',
   'EXTENSION'),
  ('PySide2.QtCore',
   'C:\\Users\\Cody\\AppData\\Roaming\\Python\\Python38\\site-packages\\PySide2\\QtCore.pyd',
   'EXTENSION'),
  ('_ctypes', 'c:\\program files\\python38\\DLLs\\_ctypes.pyd', 'EXTENSION'),
  ('Qt5Gui.dll',
   'C:\\Users\\Cody\\AppData\\Roaming\\Python\\Python38\\site-packages\\PySide2\\Qt5Gui.dll',
   'BINARY'),
  ('Qt5Core.dll',
   'C:\\Users\\Cody\\AppData\\Roaming\\Python\\Python38\\site-packages\\PySide2\\Qt5Core.dll',
   'BINARY'),
  ('VCRUNTIME140_1.dll',
   'C:\\Users\\Cody\\AppData\\Roaming\\Python\\Python38\\site-packages\\PySide2\\VCRUNTIME140_1.dll',
   'BINARY'),
  ('MSVCP140.dll',
   'C:\\Users\\Cody\\AppData\\Roaming\\Python\\Python38\\site-packages\\PySide2\\MSVCP140.dll',
   'BINARY'),
  ('Qt5Widgets.dll',
   'C:\\Users\\Cody\\AppData\\Roaming\\Python\\Python38\\site-packages\\PySide2\\Qt5Widgets.dll',
   'BINARY'),
  ('api-ms-win-crt-utility-l1-1-0.dll',
   'C:\\Program '
   'Files\\AdoptOpenJDK\\jdk-11.0.10.9-hotspot\\bin\\api-ms-win-crt-utility-l1-1-0.dll',
   'BINARY'),
  ('Qt5DBus.dll',
   'C:\\Users\\Cody\\AppData\\Roaming\\Python\\Python38\\site-packages\\PySide2\\Qt5DBus.dll',
   'BINARY'),
  ('Qt5Svg.dll',
   'C:\\Users\\Cody\\AppData\\Roaming\\Python\\Python38\\site-packages\\PySide2\\Qt5Svg.dll',
   'BINARY'),
  ('Qt5Pdf.dll',
   'C:\\Users\\Cody\\AppData\\Roaming\\Python\\Python38\\site-packages\\PySide2\\Qt5Pdf.dll',
   'BINARY'),
  ('Qt5VirtualKeyboard.dll',
   'C:\\Users\\Cody\\AppData\\Roaming\\Python\\Python38\\site-packages\\PySide2\\Qt5VirtualKeyboard.dll',
   'BINARY'),
  ('Qt5Qml.dll',
   'C:\\Users\\Cody\\AppData\\Roaming\\Python\\Python38\\site-packages\\PySide2\\Qt5Qml.dll',
   'BINARY'),
  ('Qt5Quick.dll',
   'C:\\Users\\Cody\\AppData\\Roaming\\Python\\Python38\\site-packages\\PySide2\\Qt5Quick.dll',
   'BINARY'),
  ('Qt5Network.dll',
   'C:\\Users\\Cody\\AppData\\Roaming\\Python\\Python38\\site-packages\\PySide2\\Qt5Network.dll',
   'BINARY'),
  ('Qt5WebSockets.dll',
   'C:\\Users\\Cody\\AppData\\Roaming\\Python\\Python38\\site-packages\\PySide2\\Qt5WebSockets.dll',
   'BINARY'),
  ('libssl-1_1.dll',
   'c:\\program files\\python38\\DLLs\\libssl-1_1.dll',
   'BINARY'),
  ('libcrypto-1_1.dll',
   'c:\\program files\\python38\\DLLs\\libcrypto-1_1.dll',
   'BINARY'),
  ('python3.dll', 'c:\\program files\\python38\\python3.dll', 'BINARY'),
  ('pyside2.abi3.dll',
   'C:\\Users\\Cody\\AppData\\Roaming\\Python\\Python38\\site-packages\\PySide2\\pyside2.abi3.dll',
   'BINARY'),
  ('shiboken2.abi3.dll',
   'C:\\Users\\Cody\\AppData\\Roaming\\Python\\Python38\\site-packages\\shiboken2\\shiboken2.abi3.dll',
   'BINARY'),
  ('libffi-7.dll', 'c:\\program files\\python38\\DLLs\\libffi-7.dll', 'BINARY'),
  ('MSVCP140_1.dll',
   'C:\\Users\\Cody\\AppData\\Roaming\\Python\\Python38\\site-packages\\PySide2\\MSVCP140_1.dll',
   'BINARY'),
  ('Qt5QmlModels.dll',
   'C:\\Users\\Cody\\AppData\\Roaming\\Python\\Python38\\site-packages\\PySide2\\Qt5QmlModels.dll',
   'BINARY')],
 [],
 [],
 [('base_library.zip',
   'C:\\Users\\Cody\\Desktop\\FuzeBuildSelectorGUI\\build\\FuzeBuildSelector\\base_library.zip',
   'DATA'),
  ('PySide2\\translations\\qtbase_fr.qm',
   'C:\\Users\\Cody\\AppData\\Roaming\\Python\\Python38\\site-packages\\PySide2\\translations\\qtbase_fr.qm',
   'DATA'),
  ('PySide2\\translations\\qtbase_hu.qm',
   'C:\\Users\\Cody\\AppData\\Roaming\\Python\\Python38\\site-packages\\PySide2\\translations\\qtbase_hu.qm',
   'DATA'),
  ('PySide2\\translations\\qtbase_uk.qm',
   'C:\\Users\\Cody\\AppData\\Roaming\\Python\\Python38\\site-packages\\PySide2\\translations\\qtbase_uk.qm',
   'DATA'),
  ('PySide2\\translations\\qtbase_es.qm',
   'C:\\Users\\Cody\\AppData\\Roaming\\Python\\Python38\\site-packages\\PySide2\\translations\\qtbase_es.qm',
   'DATA'),
  ('PySide2\\translations\\qtbase_it.qm',
   'C:\\Users\\Cody\\AppData\\Roaming\\Python\\Python38\\site-packages\\PySide2\\translations\\qtbase_it.qm',
   'DATA'),
  ('PySide2\\translations\\qtbase_cs.qm',
   'C:\\Users\\Cody\\AppData\\Roaming\\Python\\Python38\\site-packages\\PySide2\\translations\\qtbase_cs.qm',
   'DATA'),
  ('PySide2\\translations\\qtbase_sk.qm',
   'C:\\Users\\Cody\\AppData\\Roaming\\Python\\Python38\\site-packages\\PySide2\\translations\\qtbase_sk.qm',
   'DATA'),
  ('PySide2\\translations\\qtbase_en.qm',
   'C:\\Users\\Cody\\AppData\\Roaming\\Python\\Python38\\site-packages\\PySide2\\translations\\qtbase_en.qm',
   'DATA'),
  ('PySide2\\translations\\qtbase_ja.qm',
   'C:\\Users\\Cody\\AppData\\Roaming\\Python\\Python38\\site-packages\\PySide2\\translations\\qtbase_ja.qm',
   'DATA'),
  ('PySide2\\translations\\qtbase_da.qm',
   'C:\\Users\\Cody\\AppData\\Roaming\\Python\\Python38\\site-packages\\PySide2\\translations\\qtbase_da.qm',
   'DATA'),
  ('PySide2\\translations\\qtbase_ko.qm',
   'C:\\Users\\Cody\\AppData\\Roaming\\Python\\Python38\\site-packages\\PySide2\\translations\\qtbase_ko.qm',
   'DATA'),
  ('PySide2\\qt.conf',
   'C:\\Users\\Cody\\AppData\\Roaming\\Python\\Python38\\site-packages\\PySide2\\qt.conf',
   'DATA'),
  ('PySide2\\translations\\qtbase_lv.qm',
   'C:\\Users\\Cody\\AppData\\Roaming\\Python\\Python38\\site-packages\\PySide2\\translations\\qtbase_lv.qm',
   'DATA'),
  ('PySide2\\translations\\qtbase_de.qm',
   'C:\\Users\\Cody\\AppData\\Roaming\\Python\\Python38\\site-packages\\PySide2\\translations\\qtbase_de.qm',
   'DATA'),
  ('PySide2\\translations\\qtbase_tr.qm',
   'C:\\Users\\Cody\\AppData\\Roaming\\Python\\Python38\\site-packages\\PySide2\\translations\\qtbase_tr.qm',
   'DATA'),
  ('PySide2\\translations\\qtbase_zh_TW.qm',
   'C:\\Users\\Cody\\AppData\\Roaming\\Python\\Python38\\site-packages\\PySide2\\translations\\qtbase_zh_TW.qm',
   'DATA'),
  ('PySide2\\translations\\qtbase_he.qm',
   'C:\\Users\\Cody\\AppData\\Roaming\\Python\\Python38\\site-packages\\PySide2\\translations\\qtbase_he.qm',
   'DATA'),
  ('PySide2\\translations\\qtbase_ar.qm',
   'C:\\Users\\Cody\\AppData\\Roaming\\Python\\Python38\\site-packages\\PySide2\\translations\\qtbase_ar.qm',
   'DATA'),
  ('PySide2\\translations\\qtbase_ca.qm',
   'C:\\Users\\Cody\\AppData\\Roaming\\Python\\Python38\\site-packages\\PySide2\\translations\\qtbase_ca.qm',
   'DATA'),
  ('PySide2\\translations\\qtbase_gd.qm',
   'C:\\Users\\Cody\\AppData\\Roaming\\Python\\Python38\\site-packages\\PySide2\\translations\\qtbase_gd.qm',
   'DATA'),
  ('Include\\pyconfig.h',
   'c:\\program files\\python38\\Include\\pyconfig.h',
   'DATA'),
  ('PySide2\\translations\\qtbase_pl.qm',
   'C:\\Users\\Cody\\AppData\\Roaming\\Python\\Python38\\site-packages\\PySide2\\translations\\qtbase_pl.qm',
   'DATA'),
  ('PySide2\\translations\\qtbase_bg.qm',
   'C:\\Users\\Cody\\AppData\\Roaming\\Python\\Python38\\site-packages\\PySide2\\translations\\qtbase_bg.qm',
   'DATA'),
  ('PySide2\\translations\\qtbase_ru.qm',
   'C:\\Users\\Cody\\AppData\\Roaming\\Python\\Python38\\site-packages\\PySide2\\translations\\qtbase_ru.qm',
   'DATA'),
  ('PySide2\\translations\\qtbase_fi.qm',
   'C:\\Users\\Cody\\AppData\\Roaming\\Python\\Python38\\site-packages\\PySide2\\translations\\qtbase_fi.qm',
   'DATA')],
 [])
