([('FuzeBuildSelector.exe',
   'C:\\Users\\Cody\\Desktop\\FuzeBuildSelectorGUI\\build\\FuzeBuildSelector\\FuzeBuildSelector.exe',
   'EXECUTABLE'),
  ('FuzeBuildSelector.exe.manifest',
   'C:\\Users\\Cody\\Desktop\\FuzeBuildSelectorGUI\\build\\FuzeBuildSelector\\FuzeBuildSelector.exe.manifest',
   'BINARY'),
  ('api-ms-win-crt-runtime-l1-1-0.dll',
   'C:\\Program '
   'Files\\AdoptOpenJDK\\jdk-11.0.10.9-hotspot\\bin\\api-ms-win-crt-runtime-l1-1-0.dll',
   'BINARY'),
  ('api-ms-win-crt-locale-l1-1-0.dll',
   'C:\\Program '
   'Files\\AdoptOpenJDK\\jdk-11.0.10.9-hotspot\\bin\\api-ms-win-crt-locale-l1-1-0.dll',
   'BINARY'),
  ('python38.dll', 'c:\\program files\\python38\\python38.dll', 'BINARY'),
  ('api-ms-win-crt-math-l1-1-0.dll',
   'C:\\Program '
   'Files\\AdoptOpenJDK\\jdk-11.0.10.9-hotspot\\bin\\api-ms-win-crt-math-l1-1-0.dll',
   'BINARY'),
  ('api-ms-win-crt-stdio-l1-1-0.dll',
   'C:\\Program '
   'Files\\AdoptOpenJDK\\jdk-11.0.10.9-hotspot\\bin\\api-ms-win-crt-stdio-l1-1-0.dll',
   'BINARY'),
  ('VCRUNTIME140.dll',
   'c:\\program files\\python38\\VCRUNTIME140.dll',
   'BINARY'),
  ('api-ms-win-crt-heap-l1-1-0.dll',
   'C:\\Program '
   'Files\\AdoptOpenJDK\\jdk-11.0.10.9-hotspot\\bin\\api-ms-win-crt-heap-l1-1-0.dll',
   'BINARY'),
  ('ucrtbase.dll',
   'C:\\Program Files\\AdoptOpenJDK\\jdk-11.0.10.9-hotspot\\bin\\ucrtbase.dll',
   'BINARY'),
  ('api-ms-win-crt-environment-l1-1-0.dll',
   'C:\\Program '
   'Files\\AdoptOpenJDK\\jdk-11.0.10.9-hotspot\\bin\\api-ms-win-crt-environment-l1-1-0.dll',
   'BINARY'),
  ('api-ms-win-crt-process-l1-1-0.dll',
   'C:\\Program '
   'Files\\AdoptOpenJDK\\jdk-11.0.10.9-hotspot\\bin\\api-ms-win-crt-process-l1-1-0.dll',
   'BINARY'),
  ('api-ms-win-crt-time-l1-1-0.dll',
   'C:\\Program '
   'Files\\AdoptOpenJDK\\jdk-11.0.10.9-hotspot\\bin\\api-ms-win-crt-time-l1-1-0.dll',
   'BINARY'),
  ('api-ms-win-crt-filesystem-l1-1-0.dll',
   'C:\\Program '
   'Files\\AdoptOpenJDK\\jdk-11.0.10.9-hotspot\\bin\\api-ms-win-crt-filesystem-l1-1-0.dll',
   'BINARY'),
  ('api-ms-win-crt-conio-l1-1-0.dll',
   'C:\\Program '
   'Files\\AdoptOpenJDK\\jdk-11.0.10.9-hotspot\\bin\\api-ms-win-crt-conio-l1-1-0.dll',
   'BINARY'),
  ('api-ms-win-crt-convert-l1-1-0.dll',
   'C:\\Program '
   'Files\\AdoptOpenJDK\\jdk-11.0.10.9-hotspot\\bin\\api-ms-win-crt-convert-l1-1-0.dll',
   'BINARY'),
  ('api-ms-win-crt-string-l1-1-0.dll',
   'C:\\Program '
   'Files\\AdoptOpenJDK\\jdk-11.0.10.9-hotspot\\bin\\api-ms-win-crt-string-l1-1-0.dll',
   'BINARY'),
  ('api-ms-win-core-rtlsupport-l1-1-0.dll',
   'C:\\Program '
   'Files\\AdoptOpenJDK\\jdk-11.0.10.9-hotspot\\bin\\api-ms-win-core-rtlsupport-l1-1-0.dll',
   'BINARY'),
  ('api-ms-win-core-console-l1-1-0.dll',
   'C:\\Program '
   'Files\\AdoptOpenJDK\\jdk-11.0.10.9-hotspot\\bin\\api-ms-win-core-console-l1-1-0.dll',
   'BINARY'),
  ('api-ms-win-core-synch-l1-2-0.dll',
   'C:\\Program '
   'Files\\AdoptOpenJDK\\jdk-11.0.10.9-hotspot\\bin\\api-ms-win-core-synch-l1-2-0.dll',
   'BINARY'),
  ('api-ms-win-core-namedpipe-l1-1-0.dll',
   'C:\\Program '
   'Files\\AdoptOpenJDK\\jdk-11.0.10.9-hotspot\\bin\\api-ms-win-core-namedpipe-l1-1-0.dll',
   'BINARY'),
  ('api-ms-win-core-handle-l1-1-0.dll',
   'C:\\Program '
   'Files\\AdoptOpenJDK\\jdk-11.0.10.9-hotspot\\bin\\api-ms-win-core-handle-l1-1-0.dll',
   'BINARY'),
  ('api-ms-win-core-file-l2-1-0.dll',
   'C:\\Program '
   'Files\\AdoptOpenJDK\\jdk-11.0.10.9-hotspot\\bin\\api-ms-win-core-file-l2-1-0.dll',
   'BINARY'),
  ('api-ms-win-core-debug-l1-1-0.dll',
   'C:\\Program '
   'Files\\AdoptOpenJDK\\jdk-11.0.10.9-hotspot\\bin\\api-ms-win-core-debug-l1-1-0.dll',
   'BINARY'),
  ('api-ms-win-core-processthreads-l1-1-0.dll',
   'C:\\Program '
   'Files\\AdoptOpenJDK\\jdk-11.0.10.9-hotspot\\bin\\api-ms-win-core-processthreads-l1-1-0.dll',
   'BINARY'),
  ('api-ms-win-core-string-l1-1-0.dll',
   'C:\\Program '
   'Files\\AdoptOpenJDK\\jdk-11.0.10.9-hotspot\\bin\\api-ms-win-core-string-l1-1-0.dll',
   'BINARY'),
  ('api-ms-win-core-file-l1-1-0.dll',
   'C:\\Program '
   'Files\\AdoptOpenJDK\\jdk-11.0.10.9-hotspot\\bin\\api-ms-win-core-file-l1-1-0.dll',
   'BINARY'),
  ('api-ms-win-core-datetime-l1-1-0.dll',
   'C:\\Program '
   'Files\\AdoptOpenJDK\\jdk-11.0.10.9-hotspot\\bin\\api-ms-win-core-datetime-l1-1-0.dll',
   'BINARY'),
  ('api-ms-win-core-interlocked-l1-1-0.dll',
   'C:\\Program '
   'Files\\AdoptOpenJDK\\jdk-11.0.10.9-hotspot\\bin\\api-ms-win-core-interlocked-l1-1-0.dll',
   'BINARY'),
  ('api-ms-win-core-file-l1-2-0.dll',
   'C:\\Program '
   'Files\\AdoptOpenJDK\\jdk-11.0.10.9-hotspot\\bin\\api-ms-win-core-file-l1-2-0.dll',
   'BINARY'),
  ('api-ms-win-core-errorhandling-l1-1-0.dll',
   'C:\\Program '
   'Files\\AdoptOpenJDK\\jdk-11.0.10.9-hotspot\\bin\\api-ms-win-core-errorhandling-l1-1-0.dll',
   'BINARY'),
  ('api-ms-win-core-processthreads-l1-1-1.dll',
   'C:\\Program '
   'Files\\AdoptOpenJDK\\jdk-11.0.10.9-hotspot\\bin\\api-ms-win-core-processthreads-l1-1-1.dll',
   'BINARY'),
  ('api-ms-win-core-sysinfo-l1-1-0.dll',
   'C:\\Program '
   'Files\\AdoptOpenJDK\\jdk-11.0.10.9-hotspot\\bin\\api-ms-win-core-sysinfo-l1-1-0.dll',
   'BINARY'),
  ('api-ms-win-core-heap-l1-1-0.dll',
   'C:\\Program '
   'Files\\AdoptOpenJDK\\jdk-11.0.10.9-hotspot\\bin\\api-ms-win-core-heap-l1-1-0.dll',
   'BINARY'),
  ('api-ms-win-core-profile-l1-1-0.dll',
   'C:\\Program '
   'Files\\AdoptOpenJDK\\jdk-11.0.10.9-hotspot\\bin\\api-ms-win-core-profile-l1-1-0.dll',
   'BINARY'),
  ('api-ms-win-core-processenvironment-l1-1-0.dll',
   'C:\\Program '
   'Files\\AdoptOpenJDK\\jdk-11.0.10.9-hotspot\\bin\\api-ms-win-core-processenvironment-l1-1-0.dll',
   'BINARY'),
  ('api-ms-win-core-memory-l1-1-0.dll',
   'C:\\Program '
   'Files\\AdoptOpenJDK\\jdk-11.0.10.9-hotspot\\bin\\api-ms-win-core-memory-l1-1-0.dll',
   'BINARY'),
  ('api-ms-win-core-util-l1-1-0.dll',
   'C:\\Program '
   'Files\\AdoptOpenJDK\\jdk-11.0.10.9-hotspot\\bin\\api-ms-win-core-util-l1-1-0.dll',
   'BINARY'),
  ('api-ms-win-core-libraryloader-l1-1-0.dll',
   'C:\\Program '
   'Files\\AdoptOpenJDK\\jdk-11.0.10.9-hotspot\\bin\\api-ms-win-core-libraryloader-l1-1-0.dll',
   'BINARY'),
  ('api-ms-win-core-timezone-l1-1-0.dll',
   'C:\\Program '
   'Files\\AdoptOpenJDK\\jdk-11.0.10.9-hotspot\\bin\\api-ms-win-core-timezone-l1-1-0.dll',
   'BINARY'),
  ('api-ms-win-core-localization-l1-2-0.dll',
   'C:\\Program '
   'Files\\AdoptOpenJDK\\jdk-11.0.10.9-hotspot\\bin\\api-ms-win-core-localization-l1-2-0.dll',
   'BINARY'),
  ('api-ms-win-core-synch-l1-1-0.dll',
   'C:\\Program '
   'Files\\AdoptOpenJDK\\jdk-11.0.10.9-hotspot\\bin\\api-ms-win-core-synch-l1-1-0.dll',
   'BINARY'),
  ('PySide2\\plugins\\imageformats\\qgif.dll',
   'C:\\Users\\Cody\\AppData\\Roaming\\Python\\Python38\\site-packages\\PySide2\\plugins\\imageformats\\qgif.dll',
   'BINARY'),
  ('PySide2\\plugins\\imageformats\\qicns.dll',
   'C:\\Users\\Cody\\AppData\\Roaming\\Python\\Python38\\site-packages\\PySide2\\plugins\\imageformats\\qicns.dll',
   'BINARY'),
  ('PySide2\\plugins\\imageformats\\qwbmp.dll',
   'C:\\Users\\Cody\\AppData\\Roaming\\Python\\Python38\\site-packages\\PySide2\\plugins\\imageformats\\qwbmp.dll',
   'BINARY'),
  ('libGLESv2.dll',
   'C:\\Users\\Cody\\AppData\\Roaming\\Python\\Python38\\site-packages\\PySide2\\libGLESv2.dll',
   'BINARY'),
  ('PySide2\\plugins\\styles\\qwindowsvistastyle.dll',
   'C:\\Users\\Cody\\AppData\\Roaming\\Python\\Python38\\site-packages\\PySide2\\plugins\\styles\\qwindowsvistastyle.dll',
   'BINARY'),
  ('PySide2\\plugins\\imageformats\\qtga.dll',
   'C:\\Users\\Cody\\AppData\\Roaming\\Python\\Python38\\site-packages\\PySide2\\plugins\\imageformats\\qtga.dll',
   'BINARY'),
  ('opengl32sw.dll',
   'C:\\Users\\Cody\\AppData\\Roaming\\Python\\Python38\\site-packages\\PySide2\\opengl32sw.dll',
   'BINARY'),
  ('PySide2\\plugins\\imageformats\\qwebp.dll',
   'C:\\Users\\Cody\\AppData\\Roaming\\Python\\Python38\\site-packages\\PySide2\\plugins\\imageformats\\qwebp.dll',
   'BINARY'),
  ('PySide2\\plugins\\imageformats\\qjpeg.dll',
   'C:\\Users\\Cody\\AppData\\Roaming\\Python\\Python38\\site-packages\\PySide2\\plugins\\imageformats\\qjpeg.dll',
   'BINARY'),
  ('PySide2\\plugins\\platformthemes\\qxdgdesktopportal.dll',
   'C:\\Users\\Cody\\AppData\\Roaming\\Python\\Python38\\site-packages\\PySide2\\plugins\\platformthemes\\qxdgdesktopportal.dll',
   'BINARY'),
  ('PySide2\\plugins\\iconengines\\qsvgicon.dll',
   'C:\\Users\\Cody\\AppData\\Roaming\\Python\\Python38\\site-packages\\PySide2\\plugins\\iconengines\\qsvgicon.dll',
   'BINARY'),
  ('libEGL.dll',
   'C:\\Users\\Cody\\AppData\\Roaming\\Python\\Python38\\site-packages\\PySide2\\libEGL.dll',
   'BINARY'),
  ('d3dcompiler_47.dll',
   'C:\\Users\\Cody\\AppData\\Roaming\\Python\\Python38\\site-packages\\PySide2\\d3dcompiler_47.dll',
   'BINARY'),
  ('PySide2\\plugins\\imageformats\\qico.dll',
   'C:\\Users\\Cody\\AppData\\Roaming\\Python\\Python38\\site-packages\\PySide2\\plugins\\imageformats\\qico.dll',
   'BINARY'),
  ('PySide2\\plugins\\imageformats\\qpdf.dll',
   'C:\\Users\\Cody\\AppData\\Roaming\\Python\\Python38\\site-packages\\PySide2\\plugins\\imageformats\\qpdf.dll',
   'BINARY'),
  ('PySide2\\plugins\\platforms\\qwindows.dll',
   'C:\\Users\\Cody\\AppData\\Roaming\\Python\\Python38\\site-packages\\PySide2\\plugins\\platforms\\qwindows.dll',
   'BINARY'),
  ('PySide2\\plugins\\platforminputcontexts\\qtvirtualkeyboardplugin.dll',
   'C:\\Users\\Cody\\AppData\\Roaming\\Python\\Python38\\site-packages\\PySide2\\plugins\\platforminputcontexts\\qtvirtualkeyboardplugin.dll',
   'BINARY'),
  ('PySide2\\plugins\\imageformats\\qsvg.dll',
   'C:\\Users\\Cody\\AppData\\Roaming\\Python\\Python38\\site-packages\\PySide2\\plugins\\imageformats\\qsvg.dll',
   'BINARY'),
  ('PySide2\\plugins\\platforms\\qoffscreen.dll',
   'C:\\Users\\Cody\\AppData\\Roaming\\Python\\Python38\\site-packages\\PySide2\\plugins\\platforms\\qoffscreen.dll',
   'BINARY'),
  ('PySide2\\plugins\\imageformats\\qtiff.dll',
   'C:\\Users\\Cody\\AppData\\Roaming\\Python\\Python38\\site-packages\\PySide2\\plugins\\imageformats\\qtiff.dll',
   'BINARY'),
  ('PySide2\\plugins\\platforms\\qminimal.dll',
   'C:\\Users\\Cody\\AppData\\Roaming\\Python\\Python38\\site-packages\\PySide2\\plugins\\platforms\\qminimal.dll',
   'BINARY'),
  ('PySide2\\plugins\\platforms\\qwebgl.dll',
   'C:\\Users\\Cody\\AppData\\Roaming\\Python\\Python38\\site-packages\\PySide2\\plugins\\platforms\\qwebgl.dll',
   'BINARY'),
  ('_multiprocessing',
   'c:\\program files\\python38\\DLLs\\_multiprocessing.pyd',
   'EXTENSION'),
  ('unicodedata',
   'c:\\program files\\python38\\DLLs\\unicodedata.pyd',
   'EXTENSION'),
  ('select', 'c:\\program files\\python38\\DLLs\\select.pyd', 'EXTENSION'),
  ('_socket', 'c:\\program files\\python38\\DLLs\\_socket.pyd', 'EXTENSION'),
  ('_overlapped',
   'c:\\program files\\python38\\DLLs\\_overlapped.pyd',
   'EXTENSION'),
  ('_ssl', 'c:\\program files\\python38\\DLLs\\_ssl.pyd', 'EXTENSION'),
  ('_asyncio', 'c:\\program files\\python38\\DLLs\\_asyncio.pyd', 'EXTENSION'),
  ('_queue', 'c:\\program files\\python38\\DLLs\\_queue.pyd', 'EXTENSION'),
  ('pyexpat', 'c:\\program files\\python38\\DLLs\\pyexpat.pyd', 'EXTENSION'),
  ('_decimal', 'c:\\program files\\python38\\DLLs\\_decimal.pyd', 'EXTENSION'),
  ('_hashlib', 'c:\\program files\\python38\\DLLs\\_hashlib.pyd', 'EXTENSION'),
  ('_lzma', 'c:\\program files\\python38\\DLLs\\_lzma.pyd', 'EXTENSION'),
  ('_bz2', 'c:\\program files\\python38\\DLLs\\_bz2.pyd', 'EXTENSION'),
  ('PySide2.QtWidgets',
   'C:\\Users\\Cody\\AppData\\Roaming\\Python\\Python38\\site-packages\\PySide2\\QtWidgets.pyd',
   'EXTENSION'),
  ('PySide2.QtNetwork',
   'C:\\Users\\Cody\\AppData\\Roaming\\Python\\Python38\\site-packages\\PySide2\\QtNetwork.pyd',
   'EXTENSION'),
  ('shiboken2.shiboken2',
   'C:\\Users\\Cody\\AppData\\Roaming\\Python\\Python38\\site-packages\\shiboken2\\shiboken2.pyd',
   'EXTENSION'),
  ('PySide2.QtGui',
   'C:\\Users\\Cody\\AppData\\Roaming\\Python\\Python38\\site-packages\\PySide2\\QtGui.pyd',
   'EXTENSION'),
  ('PySide2.QtCore',
   'C:\\Users\\Cody\\AppData\\Roaming\\Python\\Python38\\site-packages\\PySide2\\QtCore.pyd',
   'EXTENSION'),
  ('_ctypes', 'c:\\program files\\python38\\DLLs\\_ctypes.pyd', 'EXTENSION'),
  ('Qt5Gui.dll',
   'C:\\Users\\Cody\\AppData\\Roaming\\Python\\Python38\\site-packages\\PySide2\\Qt5Gui.dll',
   'BINARY'),
  ('Qt5Core.dll',
   'C:\\Users\\Cody\\AppData\\Roaming\\Python\\Python38\\site-packages\\PySide2\\Qt5Core.dll',
   'BINARY'),
  ('VCRUNTIME140_1.dll',
   'C:\\Users\\Cody\\AppData\\Roaming\\Python\\Python38\\site-packages\\PySide2\\VCRUNTIME140_1.dll',
   'BINARY'),
  ('MSVCP140.dll',
   'C:\\Users\\Cody\\AppData\\Roaming\\Python\\Python38\\site-packages\\PySide2\\MSVCP140.dll',
   'BINARY'),
  ('Qt5Widgets.dll',
   'C:\\Users\\Cody\\AppData\\Roaming\\Python\\Python38\\site-packages\\PySide2\\Qt5Widgets.dll',
   'BINARY'),
  ('api-ms-win-crt-utility-l1-1-0.dll',
   'C:\\Program '
   'Files\\AdoptOpenJDK\\jdk-11.0.10.9-hotspot\\bin\\api-ms-win-crt-utility-l1-1-0.dll',
   'BINARY'),
  ('Qt5DBus.dll',
   'C:\\Users\\Cody\\AppData\\Roaming\\Python\\Python38\\site-packages\\PySide2\\Qt5DBus.dll',
   'BINARY'),
  ('Qt5Svg.dll',
   'C:\\Users\\Cody\\AppData\\Roaming\\Python\\Python38\\site-packages\\PySide2\\Qt5Svg.dll',
   'BINARY'),
  ('Qt5Pdf.dll',
   'C:\\Users\\Cody\\AppData\\Roaming\\Python\\Python38\\site-packages\\PySide2\\Qt5Pdf.dll',
   'BINARY'),
  ('Qt5VirtualKeyboard.dll',
   'C:\\Users\\Cody\\AppData\\Roaming\\Python\\Python38\\site-packages\\PySide2\\Qt5VirtualKeyboard.dll',
   'BINARY'),
  ('Qt5Qml.dll',
   'C:\\Users\\Cody\\AppData\\Roaming\\Python\\Python38\\site-packages\\PySide2\\Qt5Qml.dll',
   'BINARY'),
  ('Qt5Quick.dll',
   'C:\\Users\\Cody\\AppData\\Roaming\\Python\\Python38\\site-packages\\PySide2\\Qt5Quick.dll',
   'BINARY'),
  ('Qt5Network.dll',
   'C:\\Users\\Cody\\AppData\\Roaming\\Python\\Python38\\site-packages\\PySide2\\Qt5Network.dll',
   'BINARY'),
  ('Qt5WebSockets.dll',
   'C:\\Users\\Cody\\AppData\\Roaming\\Python\\Python38\\site-packages\\PySide2\\Qt5WebSockets.dll',
   'BINARY'),
  ('libssl-1_1.dll',
   'c:\\program files\\python38\\DLLs\\libssl-1_1.dll',
   'BINARY'),
  ('libcrypto-1_1.dll',
   'c:\\program files\\python38\\DLLs\\libcrypto-1_1.dll',
   'BINARY'),
  ('python3.dll', 'c:\\program files\\python38\\python3.dll', 'BINARY'),
  ('pyside2.abi3.dll',
   'C:\\Users\\Cody\\AppData\\Roaming\\Python\\Python38\\site-packages\\PySide2\\pyside2.abi3.dll',
   'BINARY'),
  ('shiboken2.abi3.dll',
   'C:\\Users\\Cody\\AppData\\Roaming\\Python\\Python38\\site-packages\\shiboken2\\shiboken2.abi3.dll',
   'BINARY'),
  ('libffi-7.dll', 'c:\\program files\\python38\\DLLs\\libffi-7.dll', 'BINARY'),
  ('MSVCP140_1.dll',
   'C:\\Users\\Cody\\AppData\\Roaming\\Python\\Python38\\site-packages\\PySide2\\MSVCP140_1.dll',
   'BINARY'),
  ('Qt5QmlModels.dll',
   'C:\\Users\\Cody\\AppData\\Roaming\\Python\\Python38\\site-packages\\PySide2\\Qt5QmlModels.dll',
   'BINARY'),
  ('base_library.zip',
   'C:\\Users\\Cody\\Desktop\\FuzeBuildSelectorGUI\\build\\FuzeBuildSelector\\base_library.zip',
   'DATA'),
  ('PySide2\\translations\\qtbase_fr.qm',
   'C:\\Users\\Cody\\AppData\\Roaming\\Python\\Python38\\site-packages\\PySide2\\translations\\qtbase_fr.qm',
   'DATA'),
  ('PySide2\\translations\\qtbase_hu.qm',
   'C:\\Users\\Cody\\AppData\\Roaming\\Python\\Python38\\site-packages\\PySide2\\translations\\qtbase_hu.qm',
   'DATA'),
  ('PySide2\\translations\\qtbase_uk.qm',
   'C:\\Users\\Cody\\AppData\\Roaming\\Python\\Python38\\site-packages\\PySide2\\translations\\qtbase_uk.qm',
   'DATA'),
  ('PySide2\\translations\\qtbase_es.qm',
   'C:\\Users\\Cody\\AppData\\Roaming\\Python\\Python38\\site-packages\\PySide2\\translations\\qtbase_es.qm',
   'DATA'),
  ('PySide2\\translations\\qtbase_it.qm',
   'C:\\Users\\Cody\\AppData\\Roaming\\Python\\Python38\\site-packages\\PySide2\\translations\\qtbase_it.qm',
   'DATA'),
  ('PySide2\\translations\\qtbase_cs.qm',
   'C:\\Users\\Cody\\AppData\\Roaming\\Python\\Python38\\site-packages\\PySide2\\translations\\qtbase_cs.qm',
   'DATA'),
  ('PySide2\\translations\\qtbase_sk.qm',
   'C:\\Users\\Cody\\AppData\\Roaming\\Python\\Python38\\site-packages\\PySide2\\translations\\qtbase_sk.qm',
   'DATA'),
  ('PySide2\\translations\\qtbase_en.qm',
   'C:\\Users\\Cody\\AppData\\Roaming\\Python\\Python38\\site-packages\\PySide2\\translations\\qtbase_en.qm',
   'DATA'),
  ('PySide2\\translations\\qtbase_ja.qm',
   'C:\\Users\\Cody\\AppData\\Roaming\\Python\\Python38\\site-packages\\PySide2\\translations\\qtbase_ja.qm',
   'DATA'),
  ('PySide2\\translations\\qtbase_da.qm',
   'C:\\Users\\Cody\\AppData\\Roaming\\Python\\Python38\\site-packages\\PySide2\\translations\\qtbase_da.qm',
   'DATA'),
  ('PySide2\\translations\\qtbase_ko.qm',
   'C:\\Users\\Cody\\AppData\\Roaming\\Python\\Python38\\site-packages\\PySide2\\translations\\qtbase_ko.qm',
   'DATA'),
  ('PySide2\\qt.conf',
   'C:\\Users\\Cody\\AppData\\Roaming\\Python\\Python38\\site-packages\\PySide2\\qt.conf',
   'DATA'),
  ('PySide2\\translations\\qtbase_lv.qm',
   'C:\\Users\\Cody\\AppData\\Roaming\\Python\\Python38\\site-packages\\PySide2\\translations\\qtbase_lv.qm',
   'DATA'),
  ('PySide2\\translations\\qtbase_de.qm',
   'C:\\Users\\Cody\\AppData\\Roaming\\Python\\Python38\\site-packages\\PySide2\\translations\\qtbase_de.qm',
   'DATA'),
  ('PySide2\\translations\\qtbase_tr.qm',
   'C:\\Users\\Cody\\AppData\\Roaming\\Python\\Python38\\site-packages\\PySide2\\translations\\qtbase_tr.qm',
   'DATA'),
  ('PySide2\\translations\\qtbase_zh_TW.qm',
   'C:\\Users\\Cody\\AppData\\Roaming\\Python\\Python38\\site-packages\\PySide2\\translations\\qtbase_zh_TW.qm',
   'DATA'),
  ('PySide2\\translations\\qtbase_he.qm',
   'C:\\Users\\Cody\\AppData\\Roaming\\Python\\Python38\\site-packages\\PySide2\\translations\\qtbase_he.qm',
   'DATA'),
  ('PySide2\\translations\\qtbase_ar.qm',
   'C:\\Users\\Cody\\AppData\\Roaming\\Python\\Python38\\site-packages\\PySide2\\translations\\qtbase_ar.qm',
   'DATA'),
  ('PySide2\\translations\\qtbase_ca.qm',
   'C:\\Users\\Cody\\AppData\\Roaming\\Python\\Python38\\site-packages\\PySide2\\translations\\qtbase_ca.qm',
   'DATA'),
  ('PySide2\\translations\\qtbase_gd.qm',
   'C:\\Users\\Cody\\AppData\\Roaming\\Python\\Python38\\site-packages\\PySide2\\translations\\qtbase_gd.qm',
   'DATA'),
  ('Include\\pyconfig.h',
   'c:\\program files\\python38\\Include\\pyconfig.h',
   'DATA'),
  ('PySide2\\translations\\qtbase_pl.qm',
   'C:\\Users\\Cody\\AppData\\Roaming\\Python\\Python38\\site-packages\\PySide2\\translations\\qtbase_pl.qm',
   'DATA'),
  ('PySide2\\translations\\qtbase_bg.qm',
   'C:\\Users\\Cody\\AppData\\Roaming\\Python\\Python38\\site-packages\\PySide2\\translations\\qtbase_bg.qm',
   'DATA'),
  ('PySide2\\translations\\qtbase_ru.qm',
   'C:\\Users\\Cody\\AppData\\Roaming\\Python\\Python38\\site-packages\\PySide2\\translations\\qtbase_ru.qm',
   'DATA'),
  ('PySide2\\translations\\qtbase_fi.qm',
   'C:\\Users\\Cody\\AppData\\Roaming\\Python\\Python38\\site-packages\\PySide2\\translations\\qtbase_fi.qm',
   'DATA')],)
