('C:\\Users\\Cody\\Desktop\\FuzeBuildSelectorGUI\\build\\FuzeBuildSelector\\PKG-00.pkg',
 {'BINARY': 1,
  'DATA': 1,
  'EXECUTABLE': 1,
  'EXTENSION': 1,
  'PYMODULE': 1,
  'PYSOURCE': 1,
  'PYZ': 0},
 [('PYZ-00.pyz',
   'C:\\Users\\Cody\\Desktop\\FuzeBuildSelectorGUI\\build\\FuzeBuildSelector\\PYZ-00.pyz',
   'PYZ'),
  ('struct',
   'C:\\Users\\Cody\\Desktop\\FuzeBuildSelectorGUI\\build\\FuzeBuildSelector\\localpycos\\struct.pyo',
   'PYMODULE'),
  ('pyimod01_os_path',
   'C:\\Users\\Cody\\AppData\\Roaming\\Python\\Python38\\site-packages\\PyInstaller\\loader\\pyimod01_os_path.pyc',
   'PYMODULE'),
  ('pyimod02_archive',
   'C:\\Users\\Cody\\AppData\\Roaming\\Python\\Python38\\site-packages\\PyInstaller\\loader\\pyimod02_archive.pyc',
   'PYMODULE'),
  ('pyimod03_importers',
   'C:\\Users\\Cody\\AppData\\Roaming\\Python\\Python38\\site-packages\\PyInstaller\\loader\\pyimod03_importers.pyc',
   'PYMODULE'),
  ('pyiboot01_bootstrap',
   'C:\\Users\\Cody\\AppData\\Roaming\\Python\\Python38\\site-packages\\PyInstaller\\loader\\pyiboot01_bootstrap.py',
   'PYSOURCE'),
  ('pyi_rth_multiprocessing',
   'C:\\Users\\Cody\\AppData\\Roaming\\Python\\Python38\\site-packages\\PyInstaller\\hooks\\rthooks\\pyi_rth_multiprocessing.py',
   'PYSOURCE'),
  ('pyi_rth_pyside2',
   'C:\\Users\\Cody\\AppData\\Roaming\\Python\\Python38\\site-packages\\PyInstaller\\hooks\\rthooks\\pyi_rth_pyside2.py',
   'PYSOURCE'),
  ('FuzeBuildSelector',
   'C:\\Users\\Cody\\Desktop\\FuzeBuildSelectorGUI\\FuzeBuildSelector.py',
   'PYSOURCE'),
  ('FuzeBuildSelector.exe.manifest',
   'C:\\Users\\Cody\\Desktop\\FuzeBuildSelectorGUI\\build\\FuzeBuildSelector\\FuzeBuildSelector.exe.manifest',
   'BINARY')],
 True,
 False,
 False,
 [])
